%YAML 1.1
%TAG !u! tag:unity3d.com,2011:
--- !u!1001 &100100000
Prefab:
  m_ObjectHideFlags: 1
  serializedVersion: 2
  m_Modification:
    m_TransformParent: {fileID: 0}
    m_Modifications: []
    m_RemovedComponents: []
  m_ParentPrefab: {fileID: 0}
  m_RootGameObject: {fileID: 1983258972998824}
  m_IsPrefabParent: 1
--- !u!1 &1017411069953730
GameObject:
  m_ObjectHideFlags: 0
  m_PrefabParentObject: {fileID: 0}
  m_PrefabInternal: {fileID: 100100000}
  serializedVersion: 5
  m_Component:
  - component: {fileID: 4381560702787898}
  m_Layer: 9
  m_Name: Centre
  m_TagString: Untagged
  m_Icon: {fileID: 0}
  m_NavMeshLayer: 0
  m_StaticEditorFlags: 0
  m_IsActive: 1
--- !u!1 &1019942368404724
GameObject:
  m_ObjectHideFlags: 1
  m_PrefabParentObject: {fileID: 0}
  m_PrefabInternal: {fileID: 100100000}
  serializedVersion: 5
  m_Component:
  - component: {fileID: 4261394048143884}
  - component: {fileID: 137266496793935834}
  m_Layer: 10
  m_Name: Cube_010
  m_TagString: Untagged
  m_Icon: {fileID: 0}
  m_NavMeshLayer: 0
  m_StaticEditorFlags: 0
  m_IsActive: 1
--- !u!1 &1033778993607932
GameObject:
  m_ObjectHideFlags: 1
  m_PrefabParentObject: {fileID: 0}
  m_PrefabInternal: {fileID: 100100000}
  serializedVersion: 5
  m_Component:
  - component: {fileID: 4139671780087964}
  m_Layer: 10
  m_Name: Index02_R
  m_TagString: Untagged
  m_Icon: {fileID: 0}
  m_NavMeshLayer: 0
  m_StaticEditorFlags: 0
  m_IsActive: 1
--- !u!1 &1044986208252666
GameObject:
  m_ObjectHideFlags: 1
  m_PrefabParentObject: {fileID: 0}
  m_PrefabInternal: {fileID: 100100000}
  serializedVersion: 5
  m_Component:
  - component: {fileID: 4781151809729038}
  - component: {fileID: 54956613350709360}
  - component: {fileID: 65897287034953636}
  - component: {fileID: 138247787906949478}
  m_Layer: 10
  m_Name: Spine
  m_TagString: Untagged
  m_Icon: {fileID: 0}
  m_NavMeshLayer: 0
  m_StaticEditorFlags: 0
  m_IsActive: 1
--- !u!1 &1066872635305754
GameObject:
  m_ObjectHideFlags: 0
  m_PrefabParentObject: {fileID: 0}
  m_PrefabInternal: {fileID: 100100000}
  serializedVersion: 5
  m_Component:
  - component: {fileID: 4918551068491890}
  m_Layer: 9
  m_Name: Skeleton health target
  m_TagString: Untagged
  m_Icon: {fileID: 0}
  m_NavMeshLayer: 0
  m_StaticEditorFlags: 0
  m_IsActive: 1
--- !u!1 &1095736701386084
GameObject:
  m_ObjectHideFlags: 1
  m_PrefabParentObject: {fileID: 0}
  m_PrefabInternal: {fileID: 100100000}
  serializedVersion: 5
  m_Component:
  - component: {fileID: 4185532599860996}
  - component: {fileID: 54388677611064122}
  - component: {fileID: 65859719738558492}
  - component: {fileID: 138672526866910922}
  m_Layer: 10
  m_Name: Leg_lower_L
  m_TagString: Untagged
  m_Icon: {fileID: 0}
  m_NavMeshLayer: 0
  m_StaticEditorFlags: 0
  m_IsActive: 1
--- !u!1 &1097527470871020
GameObject:
  m_ObjectHideFlags: 1
  m_PrefabParentObject: {fileID: 0}
  m_PrefabInternal: {fileID: 100100000}
  serializedVersion: 5
  m_Component:
  - component: {fileID: 4705961009660090}
  m_Layer: 10
  m_Name: MiddleFinger02_R
  m_TagString: Untagged
  m_Icon: {fileID: 0}
  m_NavMeshLayer: 0
  m_StaticEditorFlags: 0
  m_IsActive: 1
--- !u!1 &1107363363256780
GameObject:
  m_ObjectHideFlags: 1
  m_PrefabParentObject: {fileID: 0}
  m_PrefabInternal: {fileID: 100100000}
  serializedVersion: 5
  m_Component:
  - component: {fileID: 4730415927492548}
  - component: {fileID: 137469113347559306}
  m_Layer: 10
  m_Name: Cube_008
  m_TagString: Untagged
  m_Icon: {fileID: 0}
  m_NavMeshLayer: 0
  m_StaticEditorFlags: 0
  m_IsActive: 1
--- !u!1 &1111203048798190
GameObject:
  m_ObjectHideFlags: 1
  m_PrefabParentObject: {fileID: 0}
  m_PrefabInternal: {fileID: 100100000}
  serializedVersion: 5
  m_Component:
  - component: {fileID: 4244563651200670}
  m_Layer: 10
  m_Name: MiddleFinger01_R
  m_TagString: Untagged
  m_Icon: {fileID: 0}
  m_NavMeshLayer: 0
  m_StaticEditorFlags: 0
  m_IsActive: 1
--- !u!1 &1116704915092378
GameObject:
  m_ObjectHideFlags: 1
  m_PrefabParentObject: {fileID: 0}
  m_PrefabInternal: {fileID: 100100000}
  serializedVersion: 5
  m_Component:
  - component: {fileID: 4782801732767474}
  m_Layer: 10
  m_Name: Thumb02_R
  m_TagString: Untagged
  m_Icon: {fileID: 0}
  m_NavMeshLayer: 0
  m_StaticEditorFlags: 0
  m_IsActive: 1
--- !u!1 &1119192326247512
GameObject:
  m_ObjectHideFlags: 1
  m_PrefabParentObject: {fileID: 0}
  m_PrefabInternal: {fileID: 100100000}
  serializedVersion: 5
  m_Component:
  - component: {fileID: 4440900098688372}
  - component: {fileID: 54735610886146482}
  - component: {fileID: 65247748922200384}
  m_Layer: 10
  m_Name: Hips
  m_TagString: Untagged
  m_Icon: {fileID: 0}
  m_NavMeshLayer: 0
  m_StaticEditorFlags: 0
  m_IsActive: 1
--- !u!1 &1131934883076224
GameObject:
  m_ObjectHideFlags: 1
  m_PrefabParentObject: {fileID: 0}
  m_PrefabInternal: {fileID: 100100000}
  serializedVersion: 5
  m_Component:
  - component: {fileID: 4406314557515616}
  - component: {fileID: 137336902862791162}
  m_Layer: 10
  m_Name: Cube_006
  m_TagString: Untagged
  m_Icon: {fileID: 0}
  m_NavMeshLayer: 0
  m_StaticEditorFlags: 0
  m_IsActive: 1
--- !u!1 &1140859199454224
GameObject:
  m_ObjectHideFlags: 1
  m_PrefabParentObject: {fileID: 0}
  m_PrefabInternal: {fileID: 100100000}
  serializedVersion: 5
  m_Component:
  - component: {fileID: 4813879810181648}
  - component: {fileID: 137624256962342100}
  m_Layer: 10
  m_Name: Cube_002
  m_TagString: Untagged
  m_Icon: {fileID: 0}
  m_NavMeshLayer: 0
  m_StaticEditorFlags: 0
  m_IsActive: 1
--- !u!1 &1141198859145214
GameObject:
  m_ObjectHideFlags: 1
  m_PrefabParentObject: {fileID: 0}
  m_PrefabInternal: {fileID: 100100000}
  serializedVersion: 5
  m_Component:
  - component: {fileID: 4635033693610478}
  m_Layer: 10
  m_Name: Armature
  m_TagString: Untagged
  m_Icon: {fileID: 0}
  m_NavMeshLayer: 0
  m_StaticEditorFlags: 0
  m_IsActive: 1
--- !u!1 &1162183590795522
GameObject:
  m_ObjectHideFlags: 1
  m_PrefabParentObject: {fileID: 0}
  m_PrefabInternal: {fileID: 100100000}
  serializedVersion: 5
  m_Component:
  - component: {fileID: 4463725750210122}
  - component: {fileID: 54427575567565908}
  - component: {fileID: 65012169023916506}
  - component: {fileID: 138775051938112712}
  m_Layer: 10
  m_Name: Chest
  m_TagString: Untagged
  m_Icon: {fileID: 0}
  m_NavMeshLayer: 0
  m_StaticEditorFlags: 0
  m_IsActive: 1
--- !u!1 &1208799128230916
GameObject:
  m_ObjectHideFlags: 1
  m_PrefabParentObject: {fileID: 0}
  m_PrefabInternal: {fileID: 100100000}
  serializedVersion: 5
  m_Component:
  - component: {fileID: 4704541766836434}
  m_Layer: 10
  m_Name: Pinky01_R
  m_TagString: Untagged
  m_Icon: {fileID: 0}
  m_NavMeshLayer: 0
  m_StaticEditorFlags: 0
  m_IsActive: 1
--- !u!1 &1221964428114236
GameObject:
  m_ObjectHideFlags: 1
  m_PrefabParentObject: {fileID: 0}
  m_PrefabInternal: {fileID: 100100000}
  serializedVersion: 5
  m_Component:
  - component: {fileID: 4873163936578078}
  - component: {fileID: 137068244597286432}
  m_Layer: 10
  m_Name: Cube_003
  m_TagString: Untagged
  m_Icon: {fileID: 0}
  m_NavMeshLayer: 0
  m_StaticEditorFlags: 0
  m_IsActive: 1
--- !u!1 &1238906246279386
GameObject:
  m_ObjectHideFlags: 1
  m_PrefabParentObject: {fileID: 0}
  m_PrefabInternal: {fileID: 100100000}
  serializedVersion: 5
  m_Component:
  - component: {fileID: 4451454673905252}
  - component: {fileID: 137184077400258750}
  m_Layer: 10
  m_Name: Cube
  m_TagString: Untagged
  m_Icon: {fileID: 0}
  m_NavMeshLayer: 0
  m_StaticEditorFlags: 0
  m_IsActive: 1
--- !u!1 &1278832742909466
GameObject:
  m_ObjectHideFlags: 1
  m_PrefabParentObject: {fileID: 0}
  m_PrefabInternal: {fileID: 100100000}
  serializedVersion: 5
  m_Component:
  - component: {fileID: 4323596716240944}
  - component: {fileID: 137765382042741998}
  m_Layer: 10
  m_Name: Cube_001
  m_TagString: Untagged
  m_Icon: {fileID: 0}
  m_NavMeshLayer: 0
  m_StaticEditorFlags: 0
  m_IsActive: 1
--- !u!1 &1282535780028330
GameObject:
  m_ObjectHideFlags: 1
  m_PrefabParentObject: {fileID: 0}
  m_PrefabInternal: {fileID: 100100000}
  serializedVersion: 5
  m_Component:
  - component: {fileID: 4765388997636330}
  m_Layer: 10
  m_Name: Pinky01_L
  m_TagString: Untagged
  m_Icon: {fileID: 0}
  m_NavMeshLayer: 0
  m_StaticEditorFlags: 0
  m_IsActive: 1
--- !u!1 &1304655650738458
GameObject:
  m_ObjectHideFlags: 1
  m_PrefabParentObject: {fileID: 0}
  m_PrefabInternal: {fileID: 100100000}
  serializedVersion: 5
  m_Component:
  - component: {fileID: 4430748610066648}
  - component: {fileID: 54147212335287234}
  - component: {fileID: 65208025669253998}
  - component: {fileID: 138110066704804214}
  m_Layer: 10
  m_Name: Head
  m_TagString: Untagged
  m_Icon: {fileID: 0}
  m_NavMeshLayer: 0
  m_StaticEditorFlags: 0
  m_IsActive: 1
--- !u!1 &1325396650886978
GameObject:
  m_ObjectHideFlags: 1
  m_PrefabParentObject: {fileID: 0}
  m_PrefabInternal: {fileID: 100100000}
  serializedVersion: 5
  m_Component:
  - component: {fileID: 4767711581630262}
  m_Layer: 10
  m_Name: Foot_L
  m_TagString: Untagged
  m_Icon: {fileID: 0}
  m_NavMeshLayer: 0
  m_StaticEditorFlags: 0
  m_IsActive: 1
--- !u!1 &1360121368969526
GameObject:
  m_ObjectHideFlags: 1
  m_PrefabParentObject: {fileID: 0}
  m_PrefabInternal: {fileID: 100100000}
  serializedVersion: 5
  m_Component:
  - component: {fileID: 4357349634261310}
  m_Layer: 10
  m_Name: Index02_L
  m_TagString: Untagged
  m_Icon: {fileID: 0}
  m_NavMeshLayer: 0
  m_StaticEditorFlags: 0
  m_IsActive: 1
--- !u!1 &1372982833850380
GameObject:
  m_ObjectHideFlags: 1
  m_PrefabParentObject: {fileID: 0}
  m_PrefabInternal: {fileID: 100100000}
  serializedVersion: 5
  m_Component:
  - component: {fileID: 4052532927750390}
  m_Layer: 10
  m_Name: Toes_R
  m_TagString: Untagged
  m_Icon: {fileID: 0}
  m_NavMeshLayer: 0
  m_StaticEditorFlags: 0
  m_IsActive: 1
--- !u!1 &1380114989448930
GameObject:
  m_ObjectHideFlags: 1
  m_PrefabParentObject: {fileID: 0}
  m_PrefabInternal: {fileID: 100100000}
  serializedVersion: 5
  m_Component:
  - component: {fileID: 4149164709056632}
  m_Layer: 10
  m_Name: Index01_R
  m_TagString: Untagged
  m_Icon: {fileID: 0}
  m_NavMeshLayer: 0
  m_StaticEditorFlags: 0
  m_IsActive: 1
--- !u!1 &1391899557138258
GameObject:
  m_ObjectHideFlags: 1
  m_PrefabParentObject: {fileID: 0}
  m_PrefabInternal: {fileID: 100100000}
  serializedVersion: 5
  m_Component:
  - component: {fileID: 4819727327197094}
  m_Layer: 10
  m_Name: Index01_L
  m_TagString: Untagged
  m_Icon: {fileID: 0}
  m_NavMeshLayer: 0
  m_StaticEditorFlags: 0
  m_IsActive: 1
--- !u!1 &1392719221745324
GameObject:
  m_ObjectHideFlags: 1
  m_PrefabParentObject: {fileID: 0}
  m_PrefabInternal: {fileID: 100100000}
  serializedVersion: 5
  m_Component:
  - component: {fileID: 4499633639084980}
  - component: {fileID: 137341379882129154}
  m_Layer: 10
  m_Name: Skeleton_mesh
  m_TagString: Untagged
  m_Icon: {fileID: 0}
  m_NavMeshLayer: 0
  m_StaticEditorFlags: 0
  m_IsActive: 1
--- !u!1 &1394306023719606
GameObject:
  m_ObjectHideFlags: 1
  m_PrefabParentObject: {fileID: 0}
  m_PrefabInternal: {fileID: 100100000}
  serializedVersion: 5
  m_Component:
  - component: {fileID: 4393191934648268}
  m_Layer: 10
  m_Name: MiddleFinger02_L
  m_TagString: Untagged
  m_Icon: {fileID: 0}
  m_NavMeshLayer: 0
  m_StaticEditorFlags: 0
  m_IsActive: 1
--- !u!1 &1411471022487758
GameObject:
  m_ObjectHideFlags: 1
  m_PrefabParentObject: {fileID: 0}
  m_PrefabInternal: {fileID: 100100000}
  serializedVersion: 5
  m_Component:
  - component: {fileID: 4458566664509934}
  - component: {fileID: 54912792974233108}
  - component: {fileID: 65970876180055622}
  - component: {fileID: 138647588513081874}
  m_Layer: 10
  m_Name: Arm_upper_L
  m_TagString: Untagged
  m_Icon: {fileID: 0}
  m_NavMeshLayer: 0
  m_StaticEditorFlags: 0
  m_IsActive: 1
--- !u!1 &1416242658775220
GameObject:
  m_ObjectHideFlags: 1
  m_PrefabParentObject: {fileID: 0}
  m_PrefabInternal: {fileID: 100100000}
  serializedVersion: 5
  m_Component:
  - component: {fileID: 4751452890086470}
  - component: {fileID: 54797464722540380}
  - component: {fileID: 65084912681841776}
  - component: {fileID: 138613600376009894}
  m_Layer: 10
  m_Name: Leg_lower_R
  m_TagString: Untagged
  m_Icon: {fileID: 0}
  m_NavMeshLayer: 0
  m_StaticEditorFlags: 0
  m_IsActive: 1
--- !u!1 &1420259066213270
GameObject:
  m_ObjectHideFlags: 1
  m_PrefabParentObject: {fileID: 0}
  m_PrefabInternal: {fileID: 100100000}
  serializedVersion: 5
  m_Component:
  - component: {fileID: 4809619718930686}
  m_Layer: 10
  m_Name: Toes_L
  m_TagString: Untagged
  m_Icon: {fileID: 0}
  m_NavMeshLayer: 0
  m_StaticEditorFlags: 0
  m_IsActive: 1
--- !u!1 &1439533155842012
GameObject:
  m_ObjectHideFlags: 1
  m_PrefabParentObject: {fileID: 0}
  m_PrefabInternal: {fileID: 100100000}
  serializedVersion: 5
  m_Component:
  - component: {fileID: 4738057289678406}
  - component: {fileID: 54741122441037412}
  - component: {fileID: 65495720858370782}
  - component: {fileID: 138776154648751994}
  m_Layer: 10
  m_Name: Leg_Upper_R
  m_TagString: Untagged
  m_Icon: {fileID: 0}
  m_NavMeshLayer: 0
  m_StaticEditorFlags: 0
  m_IsActive: 1
--- !u!1 &1470271526400196
GameObject:
  m_ObjectHideFlags: 1
  m_PrefabParentObject: {fileID: 0}
  m_PrefabInternal: {fileID: 100100000}
  serializedVersion: 5
  m_Component:
  - component: {fileID: 4256694297242502}
  - component: {fileID: 137989451728890990}
  m_Layer: 10
  m_Name: Cube_009
  m_TagString: Untagged
  m_Icon: {fileID: 0}
  m_NavMeshLayer: 0
  m_StaticEditorFlags: 0
  m_IsActive: 1
--- !u!1 &1474149311781662
GameObject:
  m_ObjectHideFlags: 1
  m_PrefabParentObject: {fileID: 0}
  m_PrefabInternal: {fileID: 100100000}
  serializedVersion: 5
  m_Component:
  - component: {fileID: 4640880571658416}
  m_Layer: 10
  m_Name: RingFinger01_L
  m_TagString: Untagged
  m_Icon: {fileID: 0}
  m_NavMeshLayer: 0
  m_StaticEditorFlags: 0
  m_IsActive: 1
--- !u!1 &1494599200558362
GameObject:
  m_ObjectHideFlags: 1
  m_PrefabParentObject: {fileID: 0}
  m_PrefabInternal: {fileID: 100100000}
  serializedVersion: 5
  m_Component:
  - component: {fileID: 4225908910874032}
  m_Layer: 10
  m_Name: MiddleFinger01_L
  m_TagString: Untagged
  m_Icon: {fileID: 0}
  m_NavMeshLayer: 0
  m_StaticEditorFlags: 0
  m_IsActive: 1
--- !u!1 &1503294235217668
GameObject:
  m_ObjectHideFlags: 1
  m_PrefabParentObject: {fileID: 0}
  m_PrefabInternal: {fileID: 100100000}
  serializedVersion: 5
  m_Component:
  - component: {fileID: 4728081176350184}
  m_Layer: 10
  m_Name: Thumb01_R
  m_TagString: Untagged
  m_Icon: {fileID: 0}
  m_NavMeshLayer: 0
  m_StaticEditorFlags: 0
  m_IsActive: 1
--- !u!1 &1537677420779234
GameObject:
  m_ObjectHideFlags: 1
  m_PrefabParentObject: {fileID: 0}
  m_PrefabInternal: {fileID: 100100000}
  serializedVersion: 5
  m_Component:
  - component: {fileID: 4817094236622026}
  m_Layer: 10
  m_Name: Thumb01_L
  m_TagString: Untagged
  m_Icon: {fileID: 0}
  m_NavMeshLayer: 0
  m_StaticEditorFlags: 0
  m_IsActive: 1
--- !u!1 &1544911926414830
GameObject:
  m_ObjectHideFlags: 1
  m_PrefabParentObject: {fileID: 0}
  m_PrefabInternal: {fileID: 100100000}
  serializedVersion: 5
  m_Component:
  - component: {fileID: 4104051283611732}
  m_Layer: 10
  m_Name: Foot_R
  m_TagString: Untagged
  m_Icon: {fileID: 0}
  m_NavMeshLayer: 0
  m_StaticEditorFlags: 0
  m_IsActive: 1
--- !u!1 &1547636656412032
GameObject:
  m_ObjectHideFlags: 1
  m_PrefabParentObject: {fileID: 0}
  m_PrefabInternal: {fileID: 100100000}
  serializedVersion: 5
  m_Component:
  - component: {fileID: 4644254828221762}
  m_Layer: 10
  m_Name: Pinky02_R
  m_TagString: Untagged
  m_Icon: {fileID: 0}
  m_NavMeshLayer: 0
  m_StaticEditorFlags: 0
  m_IsActive: 1
--- !u!1 &1561408871086514
GameObject:
  m_ObjectHideFlags: 1
  m_PrefabParentObject: {fileID: 0}
  m_PrefabInternal: {fileID: 100100000}
  serializedVersion: 5
  m_Component:
  - component: {fileID: 4828452130403398}
  - component: {fileID: 137929467141655506}
  m_Layer: 10
  m_Name: Cube_005
  m_TagString: Untagged
  m_Icon: {fileID: 0}
  m_NavMeshLayer: 0
  m_StaticEditorFlags: 0
  m_IsActive: 1
--- !u!1 &1575135630007920
GameObject:
  m_ObjectHideFlags: 1
  m_PrefabParentObject: {fileID: 0}
  m_PrefabInternal: {fileID: 100100000}
  serializedVersion: 5
  m_Component:
  - component: {fileID: 4131283188659896}
  m_Layer: 10
  m_Name: Neck
  m_TagString: Untagged
  m_Icon: {fileID: 0}
  m_NavMeshLayer: 0
  m_StaticEditorFlags: 0
  m_IsActive: 1
--- !u!1 &1601306485996200
GameObject:
  m_ObjectHideFlags: 1
  m_PrefabParentObject: {fileID: 0}
  m_PrefabInternal: {fileID: 100100000}
  serializedVersion: 5
  m_Component:
  - component: {fileID: 4269197796722472}
  - component: {fileID: 137224641197172728}
  m_Layer: 10
  m_Name: Cube_004
  m_TagString: Untagged
  m_Icon: {fileID: 0}
  m_NavMeshLayer: 0
  m_StaticEditorFlags: 0
  m_IsActive: 1
--- !u!1 &1614075435629262
GameObject:
  m_ObjectHideFlags: 1
  m_PrefabParentObject: {fileID: 0}
  m_PrefabInternal: {fileID: 100100000}
  serializedVersion: 5
  m_Component:
  - component: {fileID: 4195536940088170}
  m_Layer: 10
  m_Name: Separate_bones
  m_TagString: Untagged
  m_Icon: {fileID: 0}
  m_NavMeshLayer: 0
  m_StaticEditorFlags: 0
  m_IsActive: 0
--- !u!1 &1678506664669020
GameObject:
  m_ObjectHideFlags: 1
  m_PrefabParentObject: {fileID: 0}
  m_PrefabInternal: {fileID: 100100000}
  serializedVersion: 5
  m_Component:
  - component: {fileID: 4634482441631018}
  m_Layer: 10
  m_Name: Pinky02_L
  m_TagString: Untagged
  m_Icon: {fileID: 0}
  m_NavMeshLayer: 0
  m_StaticEditorFlags: 0
  m_IsActive: 1
--- !u!1 &1685215767661966
GameObject:
  m_ObjectHideFlags: 1
  m_PrefabParentObject: {fileID: 0}
  m_PrefabInternal: {fileID: 100100000}
  serializedVersion: 5
  m_Component:
  - component: {fileID: 4124641778303304}
  m_Layer: 10
  m_Name: RingFinger02_R
  m_TagString: Untagged
  m_Icon: {fileID: 0}
  m_NavMeshLayer: 0
  m_StaticEditorFlags: 0
  m_IsActive: 1
--- !u!1 &1686549628555376
GameObject:
  m_ObjectHideFlags: 1
  m_PrefabParentObject: {fileID: 0}
  m_PrefabInternal: {fileID: 100100000}
  serializedVersion: 5
  m_Component:
  - component: {fileID: 4571148388547972}
  m_Layer: 10
  m_Name: RingFinger01_R
  m_TagString: Untagged
  m_Icon: {fileID: 0}
  m_NavMeshLayer: 0
  m_StaticEditorFlags: 0
  m_IsActive: 1
--- !u!1 &1726891453166660
GameObject:
  m_ObjectHideFlags: 1
  m_PrefabParentObject: {fileID: 0}
  m_PrefabInternal: {fileID: 100100000}
  serializedVersion: 5
  m_Component:
  - component: {fileID: 4976418673645792}
  m_Layer: 10
  m_Name: Arm_lower_R_001
  m_TagString: Untagged
  m_Icon: {fileID: 0}
  m_NavMeshLayer: 0
  m_StaticEditorFlags: 0
  m_IsActive: 1
--- !u!1 &1755009732639872
GameObject:
  m_ObjectHideFlags: 1
  m_PrefabParentObject: {fileID: 0}
  m_PrefabInternal: {fileID: 100100000}
  serializedVersion: 5
  m_Component:
  - component: {fileID: 4990918174898602}
  - component: {fileID: 137499582975265584}
  m_Layer: 10
  m_Name: Cube_007
  m_TagString: Untagged
  m_Icon: {fileID: 0}
  m_NavMeshLayer: 0
  m_StaticEditorFlags: 0
  m_IsActive: 1
--- !u!1 &1789808288653086
GameObject:
  m_ObjectHideFlags: 1
  m_PrefabParentObject: {fileID: 0}
  m_PrefabInternal: {fileID: 100100000}
  serializedVersion: 5
  m_Component:
  - component: {fileID: 4733434190644024}
  m_Layer: 10
  m_Name: RingFinger02_L
  m_TagString: Untagged
  m_Icon: {fileID: 0}
  m_NavMeshLayer: 0
  m_StaticEditorFlags: 0
  m_IsActive: 1
--- !u!1 &1813795524998676
GameObject:
  m_ObjectHideFlags: 1
  m_PrefabParentObject: {fileID: 0}
  m_PrefabInternal: {fileID: 100100000}
  serializedVersion: 5
  m_Component:
  - component: {fileID: 4339561629842076}
  - component: {fileID: 54893018502263176}
  - component: {fileID: 65808057013152264}
  - component: {fileID: 138784436026179378}
  m_Layer: 10
  m_Name: Leg_Upper_L
  m_TagString: Untagged
  m_Icon: {fileID: 0}
  m_NavMeshLayer: 0
  m_StaticEditorFlags: 0
  m_IsActive: 1
--- !u!1 &1835332534447136
GameObject:
  m_ObjectHideFlags: 0
  m_PrefabParentObject: {fileID: 0}
  m_PrefabInternal: {fileID: 100100000}
  serializedVersion: 5
  m_Component:
  - component: {fileID: 4613837871836808}
  - component: {fileID: 95575043972207788}
  - component: {fileID: 114003997066799726}
  m_Layer: 10
  m_Name: Sketelon (1)
  m_TagString: Untagged
  m_Icon: {fileID: 0}
  m_NavMeshLayer: 0
  m_StaticEditorFlags: 0
  m_IsActive: 1
--- !u!1 &1845658279354128
GameObject:
  m_ObjectHideFlags: 1
  m_PrefabParentObject: {fileID: 0}
  m_PrefabInternal: {fileID: 100100000}
  serializedVersion: 5
  m_Component:
  - component: {fileID: 4064846152962316}
  m_Layer: 10
  m_Name: Thumb02_L
  m_TagString: Untagged
  m_Icon: {fileID: 0}
  m_NavMeshLayer: 0
  m_StaticEditorFlags: 0
  m_IsActive: 1
--- !u!1 &1858226895978954
GameObject:
  m_ObjectHideFlags: 1
  m_PrefabParentObject: {fileID: 0}
  m_PrefabInternal: {fileID: 100100000}
  serializedVersion: 5
  m_Component:
  - component: {fileID: 4540342283253490}
  - component: {fileID: 54857542481064230}
  - component: {fileID: 65068802022513106}
  - component: {fileID: 138860783273348802}
  m_Layer: 10
  m_Name: Arm_lower_L
  m_TagString: Untagged
  m_Icon: {fileID: 0}
  m_NavMeshLayer: 0
  m_StaticEditorFlags: 0
  m_IsActive: 1
--- !u!1 &1880103228302924
GameObject:
  m_ObjectHideFlags: 1
  m_PrefabParentObject: {fileID: 0}
  m_PrefabInternal: {fileID: 100100000}
  serializedVersion: 5
  m_Component:
  - component: {fileID: 4426542071785498}
  - component: {fileID: 54328301732198270}
  - component: {fileID: 65380868104643804}
  - component: {fileID: 138887801316997362}
  m_Layer: 10
  m_Name: Arm_upper_R
  m_TagString: Untagged
  m_Icon: {fileID: 0}
  m_NavMeshLayer: 0
  m_StaticEditorFlags: 0
  m_IsActive: 1
--- !u!1 &1904359775023682
GameObject:
  m_ObjectHideFlags: 1
  m_PrefabParentObject: {fileID: 0}
  m_PrefabInternal: {fileID: 100100000}
  serializedVersion: 5
  m_Component:
  - component: {fileID: 4724320567550800}
  m_Layer: 10
  m_Name: Hand_L
  m_TagString: Untagged
  m_Icon: {fileID: 0}
  m_NavMeshLayer: 0
  m_StaticEditorFlags: 0
  m_IsActive: 1
--- !u!1 &1912169856399082
GameObject:
  m_ObjectHideFlags: 1
  m_PrefabParentObject: {fileID: 0}
  m_PrefabInternal: {fileID: 100100000}
  serializedVersion: 5
  m_Component:
  - component: {fileID: 4661386404652804}
  - component: {fileID: 54662207970176540}
  - component: {fileID: 65889479074940306}
  - component: {fileID: 138655482668863582}
  m_Layer: 10
  m_Name: Arm_lower_R
  m_TagString: Untagged
  m_Icon: {fileID: 0}
  m_NavMeshLayer: 0
  m_StaticEditorFlags: 0
  m_IsActive: 1
--- !u!1 &1983258972998824
GameObject:
  m_ObjectHideFlags: 0
  m_PrefabParentObject: {fileID: 0}
  m_PrefabInternal: {fileID: 100100000}
  serializedVersion: 5
  m_Component:
  - component: {fileID: 4226448918716116}
  - component: {fileID: 195097589060825362}
  - component: {fileID: 54043336199207082}
  - component: {fileID: 136785898280427900}
  - component: {fileID: 114249370761652326}
  - component: {fileID: 114479121695445514}
  - component: {fileID: 114385736769394418}
  - component: {fileID: 114780158036684702}
  - component: {fileID: 114211195163463408}
  m_Layer: 9
  m_Name: Enemy
  m_TagString: Untagged
  m_Icon: {fileID: 0}
  m_NavMeshLayer: 0
  m_StaticEditorFlags: 0
  m_IsActive: 1
--- !u!4 &4052532927750390
Transform:
  m_ObjectHideFlags: 1
  m_PrefabParentObject: {fileID: 0}
  m_PrefabInternal: {fileID: 100100000}
  m_GameObject: {fileID: 1372982833850380}
  m_LocalRotation: {x: 0.0000017616906, y: 0.11657022, z: -0.00000025979426, w: 0.9931825}
  m_LocalPosition: {x: -0.12195464, y: 0.000000008844836, z: 0.000000001396984}
  m_LocalScale: {x: 1.0000001, y: 1.0000001, z: 1}
  m_Children: []
  m_Father: {fileID: 4104051283611732}
  m_RootOrder: 0
  m_LocalEulerAnglesHint: {x: 0, y: 0, z: 0}
--- !u!4 &4064846152962316
Transform:
  m_ObjectHideFlags: 1
  m_PrefabParentObject: {fileID: 0}
  m_PrefabInternal: {fileID: 100100000}
  m_GameObject: {fileID: 1845658279354128}
  m_LocalRotation: {x: 0.014405714, y: -0.11284713, z: -0.019582918, w: 0.9933149}
  m_LocalPosition: {x: -0.028908584, y: 0.00000000140426, z: -0.000000018626451}
  m_LocalScale: {x: 0.99999994, y: 0.99999994, z: 0.9999999}
  m_Children: []
  m_Father: {fileID: 4817094236622026}
  m_RootOrder: 0
  m_LocalEulerAnglesHint: {x: 0, y: 0, z: 0}
--- !u!4 &4104051283611732
Transform:
  m_ObjectHideFlags: 1
  m_PrefabParentObject: {fileID: 0}
  m_PrefabInternal: {fileID: 100100000}
  m_GameObject: {fileID: 1544911926414830}
  m_LocalRotation: {x: 0.08729628, y: 0.67832375, z: 0.039625015, w: 0.72848207}
  m_LocalPosition: {x: -0.49742112, y: 0.000000043510227, z: 0.000000004190952}
  m_LocalScale: {x: 1.000001, y: 0.99999934, z: 1.0000021}
  m_Children:
  - {fileID: 4052532927750390}
  m_Father: {fileID: 4751452890086470}
  m_RootOrder: 0
  m_LocalEulerAnglesHint: {x: 0, y: 0, z: 0}
--- !u!4 &4124641778303304
Transform:
  m_ObjectHideFlags: 1
  m_PrefabParentObject: {fileID: 0}
  m_PrefabInternal: {fileID: 100100000}
  m_GameObject: {fileID: 1685215767661966}
  m_LocalRotation: {x: 0.038065284, y: -0.060666867, z: -0.16307181, w: 0.9840113}
  m_LocalPosition: {x: -0.052717347, y: -0.000000033269263, z: 0.000000002328306}
  m_LocalScale: {x: 1.0000001, y: 0.9999999, z: 0.99999994}
  m_Children: []
  m_Father: {fileID: 4571148388547972}
  m_RootOrder: 0
  m_LocalEulerAnglesHint: {x: 0, y: 0, z: 0}
--- !u!4 &4131283188659896
Transform:
  m_ObjectHideFlags: 1
  m_PrefabParentObject: {fileID: 0}
  m_PrefabInternal: {fileID: 100100000}
  m_GameObject: {fileID: 1575135630007920}
  m_LocalRotation: {x: -0.00037429968, y: -0.1547527, z: -0.0022540179, w: 0.9879506}
  m_LocalPosition: {x: -0.3587335, y: 0.000000026966221, z: 2.91077e-10}
  m_LocalScale: {x: 1.0000001, y: 0.99999994, z: 0.9999999}
  m_Children:
  - {fileID: 4430748610066648}
  m_Father: {fileID: 4463725750210122}
  m_RootOrder: 2
  m_LocalEulerAnglesHint: {x: 0, y: 0, z: 0}
--- !u!4 &4139671780087964
Transform:
  m_ObjectHideFlags: 1
  m_PrefabParentObject: {fileID: 0}
  m_PrefabInternal: {fileID: 100100000}
  m_GameObject: {fileID: 1033778993607932}
  m_LocalRotation: {x: 0.052084293, y: -0.012813884, z: -0.1523033, w: 0.98687726}
  m_LocalPosition: {x: -0.053533174, y: 0.000000005328094, z: -0.00000000372529}
  m_LocalScale: {x: 1.0000001, y: 0.9999999, z: 0.99999994}
  m_Children: []
  m_Father: {fileID: 4149164709056632}
  m_RootOrder: 0
  m_LocalEulerAnglesHint: {x: 0, y: 0, z: 0}
--- !u!4 &4149164709056632
Transform:
  m_ObjectHideFlags: 1
  m_PrefabParentObject: {fileID: 0}
  m_PrefabInternal: {fileID: 100100000}
  m_GameObject: {fileID: 1380114989448930}
  m_LocalRotation: {x: -0.66873753, y: 0.008170349, z: -0.22976092, w: 0.7070596}
  m_LocalPosition: {x: -0.025994144, y: 0.013685616, z: -0.0034019796}
  m_LocalScale: {x: 1, y: 0.99999994, z: 1.0000001}
  m_Children:
  - {fileID: 4139671780087964}
  m_Father: {fileID: 4976418673645792}
  m_RootOrder: 0
  m_LocalEulerAnglesHint: {x: 0, y: 0, z: 0}
--- !u!4 &4185532599860996
Transform:
  m_ObjectHideFlags: 1
  m_PrefabParentObject: {fileID: 0}
  m_PrefabInternal: {fileID: 100100000}
  m_GameObject: {fileID: 1095736701386084}
  m_LocalRotation: {x: 0.019786311, y: -0.14323851, z: -0.0057972567, w: 0.9894734}
  m_LocalPosition: {x: -0.43545604, y: 0.00000003061723, z: 0.000000005733455}
  m_LocalScale: {x: 1, y: 0.9999989, z: 1.0000032}
  m_Children:
  - {fileID: 4767711581630262}
  m_Father: {fileID: 4339561629842076}
  m_RootOrder: 0
  m_LocalEulerAnglesHint: {x: 0, y: 0, z: 0}
--- !u!4 &4195536940088170
Transform:
  m_ObjectHideFlags: 1
  m_PrefabParentObject: {fileID: 0}
  m_PrefabInternal: {fileID: 100100000}
  m_GameObject: {fileID: 1614075435629262}
  m_LocalRotation: {x: -0.7071068, y: 0, z: -0, w: 0.7071068}
  m_LocalPosition: {x: -0, y: 0, z: 0}
  m_LocalScale: {x: 1, y: 1, z: 1}
  m_Children:
  - {fileID: 4451454673905252}
  - {fileID: 4323596716240944}
  - {fileID: 4813879810181648}
  - {fileID: 4873163936578078}
  - {fileID: 4269197796722472}
  - {fileID: 4828452130403398}
  - {fileID: 4406314557515616}
  - {fileID: 4990918174898602}
  - {fileID: 4730415927492548}
  - {fileID: 4256694297242502}
  - {fileID: 4261394048143884}
  m_Father: {fileID: 4613837871836808}
  m_RootOrder: 1
  m_LocalEulerAnglesHint: {x: 0, y: 0, z: 0}
--- !u!4 &4225908910874032
Transform:
  m_ObjectHideFlags: 1
  m_PrefabParentObject: {fileID: 0}
  m_PrefabInternal: {fileID: 100100000}
  m_GameObject: {fileID: 1494599200558362}
  m_LocalRotation: {x: 0.67361695, y: -0.00065638986, z: 0.21503559, w: 0.7071064}
  m_LocalPosition: {x: -0.027471207, y: -0.0016435599, z: -0.003944546}
  m_LocalScale: {x: 1, y: 0.99999994, z: 1}
  m_Children:
  - {fileID: 4393191934648268}
  m_Father: {fileID: 4724320567550800}
  m_RootOrder: 1
  m_LocalEulerAnglesHint: {x: 0, y: 0, z: 0}
--- !u!4 &4226448918716116
Transform:
  m_ObjectHideFlags: 1
  m_PrefabParentObject: {fileID: 0}
  m_PrefabInternal: {fileID: 100100000}
  m_GameObject: {fileID: 1983258972998824}
  m_LocalRotation: {x: 0, y: -0.40042892, z: 0, w: 0.91632783}
  m_LocalPosition: {x: 384.46, y: 15.004101, z: 267.48}
  m_LocalScale: {x: 1, y: 1, z: 1}
  m_Children:
  - {fileID: 4613837871836808}
  - {fileID: 4381560702787898}
  - {fileID: 4918551068491890}
  m_Father: {fileID: 0}
  m_RootOrder: 0
  m_LocalEulerAnglesHint: {x: 0, y: -47.21, z: 0}
--- !u!4 &4244563651200670
Transform:
  m_ObjectHideFlags: 1
  m_PrefabParentObject: {fileID: 0}
  m_PrefabInternal: {fileID: 100100000}
  m_GameObject: {fileID: 1111203048798190}
  m_LocalRotation: {x: -0.67361706, y: -0.0006563254, z: -0.21503557, w: 0.7071063}
  m_LocalPosition: {x: -0.02747116, y: 0.0016435653, z: -0.003944531}
  m_LocalScale: {x: 1.0000001, y: 1, z: 1.0000001}
  m_Children:
  - {fileID: 4705961009660090}
  m_Father: {fileID: 4976418673645792}
  m_RootOrder: 1
  m_LocalEulerAnglesHint: {x: 0, y: 0, z: 0}
--- !u!4 &4256694297242502
Transform:
  m_ObjectHideFlags: 1
  m_PrefabParentObject: {fileID: 0}
  m_PrefabInternal: {fileID: 100100000}
  m_GameObject: {fileID: 1470271526400196}
  m_LocalRotation: {x: 0.7071068, y: -0, z: -0, w: 0.7071068}
  m_LocalPosition: {x: -0, y: 0, z: 0}
  m_LocalScale: {x: 1, y: 1, z: 1}
  m_Children: []
  m_Father: {fileID: 4195536940088170}
  m_RootOrder: 9
  m_LocalEulerAnglesHint: {x: 0, y: 0, z: 0}
--- !u!4 &4261394048143884
Transform:
  m_ObjectHideFlags: 1
  m_PrefabParentObject: {fileID: 0}
  m_PrefabInternal: {fileID: 100100000}
  m_GameObject: {fileID: 1019942368404724}
  m_LocalRotation: {x: 0.7071068, y: -0, z: -0, w: 0.7071068}
  m_LocalPosition: {x: -0, y: 0, z: 0}
  m_LocalScale: {x: 1, y: 1, z: 1}
  m_Children: []
  m_Father: {fileID: 4195536940088170}
  m_RootOrder: 10
  m_LocalEulerAnglesHint: {x: 0, y: 0, z: 0}
--- !u!4 &4269197796722472
Transform:
  m_ObjectHideFlags: 1
  m_PrefabParentObject: {fileID: 0}
  m_PrefabInternal: {fileID: 100100000}
  m_GameObject: {fileID: 1601306485996200}
  m_LocalRotation: {x: 0.7071068, y: -0, z: -0, w: 0.7071068}
  m_LocalPosition: {x: -0, y: 0, z: 0}
  m_LocalScale: {x: 1, y: 1, z: 1}
  m_Children: []
  m_Father: {fileID: 4195536940088170}
  m_RootOrder: 4
  m_LocalEulerAnglesHint: {x: 0, y: 0, z: 0}
--- !u!4 &4323596716240944
Transform:
  m_ObjectHideFlags: 1
  m_PrefabParentObject: {fileID: 0}
  m_PrefabInternal: {fileID: 100100000}
  m_GameObject: {fileID: 1278832742909466}
  m_LocalRotation: {x: 0.7071068, y: -0, z: -0, w: 0.7071068}
  m_LocalPosition: {x: -0, y: 0, z: 0}
  m_LocalScale: {x: 1, y: 1, z: 1}
  m_Children: []
  m_Father: {fileID: 4195536940088170}
  m_RootOrder: 1
  m_LocalEulerAnglesHint: {x: 0, y: 0, z: 0}
--- !u!4 &4339561629842076
Transform:
  m_ObjectHideFlags: 1
  m_PrefabParentObject: {fileID: 0}
  m_PrefabInternal: {fileID: 100100000}
  m_GameObject: {fileID: 1813795524998676}
  m_LocalRotation: {x: -0.10671762, y: -0.004902644, z: 0.9942724, w: -0.0031148859}
  m_LocalPosition: {x: 0.0035740754, y: -0.11322502, z: 0.020432536}
  m_LocalScale: {x: 0.99999946, y: 1.0000007, z: 1.0000106}
  m_Children:
  - {fileID: 4185532599860996}
  m_Father: {fileID: 4440900098688372}
  m_RootOrder: 0
  m_LocalEulerAnglesHint: {x: 0, y: 0, z: 0}
--- !u!4 &4357349634261310
Transform:
  m_ObjectHideFlags: 1
  m_PrefabParentObject: {fileID: 0}
  m_PrefabInternal: {fileID: 100100000}
  m_GameObject: {fileID: 1360121368969526}
  m_LocalRotation: {x: -0.05208416, y: -0.012813823, z: 0.1523032, w: 0.9868773}
  m_LocalPosition: {x: -0.053533264, y: -0.00000000650947, z: 0.000000024214387}
  m_LocalScale: {x: 0.99999994, y: 1.0000001, z: 1}
  m_Children: []
  m_Father: {fileID: 4819727327197094}
  m_RootOrder: 0
  m_LocalEulerAnglesHint: {x: 0, y: 0, z: 0}
--- !u!4 &4381560702787898
Transform:
  m_ObjectHideFlags: 1
  m_PrefabParentObject: {fileID: 0}
  m_PrefabInternal: {fileID: 100100000}
  m_GameObject: {fileID: 1017411069953730}
  m_LocalRotation: {x: 0, y: 0, z: 0, w: 1}
  m_LocalPosition: {x: 0, y: 1, z: 0}
  m_LocalScale: {x: 1, y: 1, z: 1}
  m_Children: []
  m_Father: {fileID: 4226448918716116}
  m_RootOrder: 1
  m_LocalEulerAnglesHint: {x: 0, y: 0, z: 0}
--- !u!4 &4393191934648268
Transform:
  m_ObjectHideFlags: 1
  m_PrefabParentObject: {fileID: 0}
  m_PrefabInternal: {fileID: 100100000}
  m_GameObject: {fileID: 1394306023719606}
  m_LocalRotation: {x: -0.039605804, y: -0.026148234, z: 0.13687856, w: 0.98945034}
  m_LocalPosition: {x: -0.054583542, y: -0.000000031146094, z: 0.0000000144355}
  m_LocalScale: {x: 0.99999994, y: 0.9999999, z: 0.99999994}
  m_Children: []
  m_Father: {fileID: 4225908910874032}
  m_RootOrder: 0
  m_LocalEulerAnglesHint: {x: 0, y: 0, z: 0}
--- !u!4 &4406314557515616
Transform:
  m_ObjectHideFlags: 1
  m_PrefabParentObject: {fileID: 0}
  m_PrefabInternal: {fileID: 100100000}
  m_GameObject: {fileID: 1131934883076224}
  m_LocalRotation: {x: 0.7071068, y: -0, z: -0, w: 0.7071068}
  m_LocalPosition: {x: -0, y: 0, z: 0}
  m_LocalScale: {x: 1, y: 1, z: 1}
  m_Children: []
  m_Father: {fileID: 4195536940088170}
  m_RootOrder: 6
  m_LocalEulerAnglesHint: {x: 0, y: 0, z: 0}
--- !u!4 &4426542071785498
Transform:
  m_ObjectHideFlags: 1
  m_PrefabParentObject: {fileID: 0}
  m_PrefabInternal: {fileID: 100100000}
  m_GameObject: {fileID: 1880103228302924}
  m_LocalRotation: {x: 0.081302896, y: 0.013587382, z: 0.98197126, w: -0.17011096}
  m_LocalPosition: {x: -0.27210903, y: 0.16137148, z: 0.015842432}
  m_LocalScale: {x: 1, y: 1.0000004, z: 1.0000001}
  m_Children:
  - {fileID: 4661386404652804}
  m_Father: {fileID: 4463725750210122}
  m_RootOrder: 1
  m_LocalEulerAnglesHint: {x: 0, y: 0, z: 0}
--- !u!4 &4430748610066648
Transform:
  m_ObjectHideFlags: 1
  m_PrefabParentObject: {fileID: 0}
  m_PrefabInternal: {fileID: 100100000}
  m_GameObject: {fileID: 1304655650738458}
  m_LocalRotation: {x: 0.000000002909837, y: 0.32690176, z: 0.00000003344423, w: 0.94505835}
  m_LocalPosition: {x: -0.081022024, y: 0.000000006116994, z: -0.000000001862645}
  m_LocalScale: {x: 1, y: 1.0000001, z: 0.99999994}
  m_Children: []
  m_Father: {fileID: 4131283188659896}
  m_RootOrder: 0
  m_LocalEulerAnglesHint: {x: 0, y: 0, z: 0}
--- !u!4 &4440900098688372
Transform:
  m_ObjectHideFlags: 1
  m_PrefabParentObject: {fileID: 0}
  m_PrefabInternal: {fileID: 100100000}
  m_GameObject: {fileID: 1119192326247512}
  m_LocalRotation: {x: 0.51919425, y: 0.53192127, z: -0.4779237, w: 0.46806645}
  m_LocalPosition: {x: -0.0028326144, y: -0.019011317, z: 0.96180826}
  m_LocalScale: {x: 1, y: 1, z: 1}
  m_Children:
  - {fileID: 4339561629842076}
  - {fileID: 4738057289678406}
  - {fileID: 4781151809729038}
  m_Father: {fileID: 4635033693610478}
  m_RootOrder: 0
  m_LocalEulerAnglesHint: {x: 0, y: 0, z: 0}
--- !u!4 &4451454673905252
Transform:
  m_ObjectHideFlags: 1
  m_PrefabParentObject: {fileID: 0}
  m_PrefabInternal: {fileID: 100100000}
  m_GameObject: {fileID: 1238906246279386}
  m_LocalRotation: {x: 0.7071068, y: -0, z: -0, w: 0.7071068}
  m_LocalPosition: {x: -0, y: 0, z: 0}
  m_LocalScale: {x: 1, y: 1, z: 1}
  m_Children: []
  m_Father: {fileID: 4195536940088170}
  m_RootOrder: 0
  m_LocalEulerAnglesHint: {x: 0, y: 0, z: 0}
--- !u!4 &4458566664509934
Transform:
  m_ObjectHideFlags: 1
  m_PrefabParentObject: {fileID: 0}
  m_PrefabInternal: {fileID: 100100000}
  m_GameObject: {fileID: 1411471022487758}
  m_LocalRotation: {x: 0.081232846, y: -0.01391755, z: 0.98118424, w: 0.17459959}
  m_LocalPosition: {x: -0.27358744, y: -0.16215508, z: 0.01585597}
  m_LocalScale: {x: 1.0000001, y: 1.0000006, z: 1.0000001}
  m_Children:
  - {fileID: 4540342283253490}
  m_Father: {fileID: 4463725750210122}
  m_RootOrder: 0
  m_LocalEulerAnglesHint: {x: 0, y: 0, z: 0}
--- !u!4 &4463725750210122
Transform:
  m_ObjectHideFlags: 1
  m_PrefabParentObject: {fileID: 0}
  m_PrefabInternal: {fileID: 100100000}
  m_GameObject: {fileID: 1162183590795522}
  m_LocalRotation: {x: -0.00042723838, y: 0.08334445, z: 0.0068212072, w: 0.9964974}
  m_LocalPosition: {x: -0.17881954, y: 0.000000012357759, z: 0.000000004795197}
  m_LocalScale: {x: 1, y: 1.0000001, z: 1}
  m_Children:
  - {fileID: 4458566664509934}
  - {fileID: 4426542071785498}
  - {fileID: 4131283188659896}
  m_Father: {fileID: 4781151809729038}
  m_RootOrder: 0
  m_LocalEulerAnglesHint: {x: 0, y: 0, z: 0}
--- !u!4 &4499633639084980
Transform:
  m_ObjectHideFlags: 1
  m_PrefabParentObject: {fileID: 0}
  m_PrefabInternal: {fileID: 100100000}
  m_GameObject: {fileID: 1392719221745324}
  m_LocalRotation: {x: 0, y: -0, z: -0, w: 1}
  m_LocalPosition: {x: -0, y: 0, z: 0}
  m_LocalScale: {x: 1, y: 1, z: 1}
  m_Children: []
  m_Father: {fileID: 4613837871836808}
  m_RootOrder: 2
  m_LocalEulerAnglesHint: {x: 0, y: 0, z: 0}
--- !u!4 &4540342283253490
Transform:
  m_ObjectHideFlags: 1
  m_PrefabParentObject: {fileID: 0}
  m_PrefabInternal: {fileID: 100100000}
  m_GameObject: {fileID: 1858226895978954}
  m_LocalRotation: {x: -0.00073415466, y: 0.16686167, z: 0.11299948, w: 0.9794834}
  m_LocalPosition: {x: -0.35993773, y: 0.000000031174302, z: 0.00000003259629}
  m_LocalScale: {x: 0.9999999, y: 1, z: 0.99999994}
  m_Children:
  - {fileID: 4724320567550800}
  m_Father: {fileID: 4458566664509934}
  m_RootOrder: 0
  m_LocalEulerAnglesHint: {x: 0, y: 0, z: 0}
--- !u!4 &4571148388547972
Transform:
  m_ObjectHideFlags: 1
  m_PrefabParentObject: {fileID: 0}
  m_PrefabInternal: {fileID: 100100000}
  m_GameObject: {fileID: 1686549628555376}
  m_LocalRotation: {x: -0.6773801, y: -0.0000724693, z: -0.20287117, w: 0.7071065}
  m_LocalPosition: {x: -0.029350854, y: -0.013464896, z: -0.004635051}
  m_LocalScale: {x: 1.0000001, y: 1, z: 1.0000001}
  m_Children:
  - {fileID: 4124641778303304}
  m_Father: {fileID: 4976418673645792}
  m_RootOrder: 3
  m_LocalEulerAnglesHint: {x: 0, y: 0, z: 0}
--- !u!4 &4613837871836808
Transform:
  m_ObjectHideFlags: 1
  m_PrefabParentObject: {fileID: 0}
  m_PrefabInternal: {fileID: 100100000}
  m_GameObject: {fileID: 1835332534447136}
  m_LocalRotation: {x: 0, y: 0, z: 0, w: 1}
  m_LocalPosition: {x: 0, y: 0, z: 0}
  m_LocalScale: {x: 1, y: 1, z: 1}
  m_Children:
  - {fileID: 4635033693610478}
  - {fileID: 4195536940088170}
  - {fileID: 4499633639084980}
  m_Father: {fileID: 4226448918716116}
  m_RootOrder: 0
  m_LocalEulerAnglesHint: {x: 0, y: 0, z: 0}
--- !u!4 &4634482441631018
Transform:
  m_ObjectHideFlags: 1
  m_PrefabParentObject: {fileID: 0}
  m_PrefabInternal: {fileID: 100100000}
  m_GameObject: {fileID: 1678506664669020}
  m_LocalRotation: {x: -0.015980145, y: -0.056259353, z: 0.21544255, w: 0.9747636}
  m_LocalPosition: {x: -0.049334392, y: 0.000000002964677, z: 4.65661e-10}
  m_LocalScale: {x: 0.99999994, y: 0.99999994, z: 0.9999999}
  m_Children: []
  m_Father: {fileID: 4765388997636330}
  m_RootOrder: 0
  m_LocalEulerAnglesHint: {x: 0, y: 0, z: 0}
--- !u!4 &4635033693610478
Transform:
  m_ObjectHideFlags: 1
  m_PrefabParentObject: {fileID: 0}
  m_PrefabInternal: {fileID: 100100000}
  m_GameObject: {fileID: 1141198859145214}
  m_LocalRotation: {x: -0.7071068, y: 0, z: -0, w: 0.7071068}
  m_LocalPosition: {x: -0, y: 0, z: 0}
  m_LocalScale: {x: 1, y: 1, z: 1}
  m_Children:
  - {fileID: 4440900098688372}
  m_Father: {fileID: 4613837871836808}
  m_RootOrder: 0
  m_LocalEulerAnglesHint: {x: 0, y: 0, z: 0}
--- !u!4 &4640880571658416
Transform:
  m_ObjectHideFlags: 1
  m_PrefabParentObject: {fileID: 0}
  m_PrefabInternal: {fileID: 100100000}
  m_GameObject: {fileID: 1474149311781662}
  m_LocalRotation: {x: 0.67737997, y: -0.00007252789, z: 0.20287122, w: 0.70710653}
  m_LocalPosition: {x: -0.0293509, y: 0.013464901, z: -0.004635021}
  m_LocalScale: {x: 1.0000001, y: 1.0000001, z: 1.0000001}
  m_Children:
  - {fileID: 4733434190644024}
  m_Father: {fileID: 4724320567550800}
  m_RootOrder: 3
  m_LocalEulerAnglesHint: {x: 0, y: 0, z: 0}
--- !u!4 &4644254828221762
Transform:
  m_ObjectHideFlags: 1
  m_PrefabParentObject: {fileID: 0}
  m_PrefabInternal: {fileID: 100100000}
  m_GameObject: {fileID: 1547636656412032}
  m_LocalRotation: {x: 0.015980246, y: -0.056259427, z: -0.21544267, w: 0.9747636}
  m_LocalPosition: {x: -0.049334377, y: 0.000000008713432, z: 0.000000008265488}
  m_LocalScale: {x: 1, y: 1, z: 0.99999994}
  m_Children: []
  m_Father: {fileID: 4704541766836434}
  m_RootOrder: 0
  m_LocalEulerAnglesHint: {x: 0, y: 0, z: 0}
--- !u!4 &4661386404652804
Transform:
  m_ObjectHideFlags: 1
  m_PrefabParentObject: {fileID: 0}
  m_PrefabInternal: {fileID: 100100000}
  m_GameObject: {fileID: 1912169856399082}
  m_LocalRotation: {x: 0.00073422346, y: 0.16686156, z: -0.11300419, w: 0.97948295}
  m_LocalPosition: {x: -0.35993797, y: 0.000000060075465, z: 0.000000005587935}
  m_LocalScale: {x: 1, y: 1, z: 0.9999999}
  m_Children:
  - {fileID: 4976418673645792}
  m_Father: {fileID: 4426542071785498}
  m_RootOrder: 0
  m_LocalEulerAnglesHint: {x: 0, y: 0, z: 0}
--- !u!4 &4704541766836434
Transform:
  m_ObjectHideFlags: 1
  m_PrefabParentObject: {fileID: 0}
  m_PrefabInternal: {fileID: 100100000}
  m_GameObject: {fileID: 1208799128230916}
  m_LocalRotation: {x: -0.692228, y: -0.052173264, z: -0.14430702, w: 0.7051764}
  m_LocalPosition: {x: -0.030444715, y: -0.02221834, z: -0.0050368756}
  m_LocalScale: {x: 1.0000004, y: 1.0000002, z: 1.0000001}
  m_Children:
  - {fileID: 4644254828221762}
  m_Father: {fileID: 4976418673645792}
  m_RootOrder: 2
  m_LocalEulerAnglesHint: {x: 0, y: 0, z: 0}
--- !u!4 &4705961009660090
Transform:
  m_ObjectHideFlags: 1
  m_PrefabParentObject: {fileID: 0}
  m_PrefabInternal: {fileID: 100100000}
  m_GameObject: {fileID: 1097527470871020}
  m_LocalRotation: {x: 0.03960594, y: -0.0261482, z: -0.13687862, w: 0.98945034}
  m_LocalPosition: {x: -0.05458349, y: 0.000000013659199, z: 0.000000002328306}
  m_LocalScale: {x: 1, y: 0.9999999, z: 0.99999994}
  m_Children: []
  m_Father: {fileID: 4244563651200670}
  m_RootOrder: 0
  m_LocalEulerAnglesHint: {x: 0, y: 0, z: 0}
--- !u!4 &4724320567550800
Transform:
  m_ObjectHideFlags: 1
  m_PrefabParentObject: {fileID: 0}
  m_PrefabInternal: {fileID: 100100000}
  m_GameObject: {fileID: 1904359775023682}
  m_LocalRotation: {x: -0.69982845, y: -0.02236704, z: -0.10119932, w: 0.7067521}
  m_LocalPosition: {x: -0.3154144, y: -0.000000021042752, z: -0.000000012572855}
  m_LocalScale: {x: 0.99999994, y: 0.9999999, z: 0.99999994}
  m_Children:
  - {fileID: 4819727327197094}
  - {fileID: 4225908910874032}
  - {fileID: 4765388997636330}
  - {fileID: 4640880571658416}
  - {fileID: 4817094236622026}
  m_Father: {fileID: 4540342283253490}
  m_RootOrder: 0
  m_LocalEulerAnglesHint: {x: 0, y: 0, z: 0}
--- !u!4 &4728081176350184
Transform:
  m_ObjectHideFlags: 1
  m_PrefabParentObject: {fileID: 0}
  m_PrefabInternal: {fileID: 100100000}
  m_GameObject: {fileID: 1503294235217668}
  m_LocalRotation: {x: -0.4850633, y: -0.047687985, z: -0.51450306, w: 0.705497}
  m_LocalPosition: {x: -0.005469271, y: 0.011983688, z: -0.010491103}
  m_LocalScale: {x: 1.0000001, y: 1.0000001, z: 1.0000001}
  m_Children: []
  m_Father: {fileID: 4976418673645792}
  m_RootOrder: 4
  m_LocalEulerAnglesHint: {x: 0, y: 0, z: 0}
--- !u!4 &4730415927492548
Transform:
  m_ObjectHideFlags: 1
  m_PrefabParentObject: {fileID: 0}
  m_PrefabInternal: {fileID: 100100000}
  m_GameObject: {fileID: 1107363363256780}
  m_LocalRotation: {x: 0.7071068, y: -0, z: -0, w: 0.7071068}
  m_LocalPosition: {x: -0, y: 0, z: 0}
  m_LocalScale: {x: 1, y: 1, z: 1}
  m_Children: []
  m_Father: {fileID: 4195536940088170}
  m_RootOrder: 8
  m_LocalEulerAnglesHint: {x: 0, y: 0, z: 0}
--- !u!4 &4733434190644024
Transform:
  m_ObjectHideFlags: 1
  m_PrefabParentObject: {fileID: 0}
  m_PrefabInternal: {fileID: 100100000}
  m_GameObject: {fileID: 1789808288653086}
  m_LocalRotation: {x: -0.03806515, y: -0.060666848, z: 0.16307172, w: 0.9840113}
  m_LocalPosition: {x: -0.05271737, y: 0.00000004506756, z: -9.31323e-10}
  m_LocalScale: {x: 0.99999994, y: 1, z: 0.9999999}
  m_Children: []
  m_Father: {fileID: 4640880571658416}
  m_RootOrder: 0
  m_LocalEulerAnglesHint: {x: 0, y: 0, z: 0}
--- !u!4 &4738057289678406
Transform:
  m_ObjectHideFlags: 1
  m_PrefabParentObject: {fileID: 0}
  m_PrefabInternal: {fileID: 100100000}
  m_GameObject: {fileID: 1439533155842012}
  m_LocalRotation: {x: -0.10679431, y: 0.0008234719, z: 0.9940939, w: -0.019277802}
  m_LocalPosition: {x: -0.0016962953, y: 0.118865095, z: 0.020822193}
  m_LocalScale: {x: 0.9999998, y: 1, z: 1.000003}
  m_Children:
  - {fileID: 4751452890086470}
  m_Father: {fileID: 4440900098688372}
  m_RootOrder: 1
  m_LocalEulerAnglesHint: {x: 0, y: 0, z: 0}
--- !u!4 &4751452890086470
Transform:
  m_ObjectHideFlags: 1
  m_PrefabParentObject: {fileID: 0}
  m_PrefabInternal: {fileID: 100100000}
  m_GameObject: {fileID: 1416242658775220}
  m_LocalRotation: {x: -0.019786106, y: -0.1432349, z: 0.0057971408, w: 0.98947394}
  m_LocalPosition: {x: -0.43545574, y: 0.000000053376425, z: 0.000000008265488}
  m_LocalScale: {x: 0.9999998, y: 0.99999994, z: 1.0000006}
  m_Children:
  - {fileID: 4104051283611732}
  m_Father: {fileID: 4738057289678406}
  m_RootOrder: 0
  m_LocalEulerAnglesHint: {x: 0, y: 0, z: 0}
--- !u!4 &4765388997636330
Transform:
  m_ObjectHideFlags: 1
  m_PrefabParentObject: {fileID: 0}
  m_PrefabInternal: {fileID: 100100000}
  m_GameObject: {fileID: 1282535780028330}
  m_LocalRotation: {x: 0.69222796, y: -0.052173354, z: 0.14430697, w: 0.70517653}
  m_LocalPosition: {x: -0.03044476, y: 0.02221834, z: -0.0050368905}
  m_LocalScale: {x: 0.9999998, y: 1, z: 0.99999994}
  m_Children:
  - {fileID: 4634482441631018}
  m_Father: {fileID: 4724320567550800}
  m_RootOrder: 2
  m_LocalEulerAnglesHint: {x: 0, y: 0, z: 0}
--- !u!4 &4767711581630262
Transform:
  m_ObjectHideFlags: 1
  m_PrefabParentObject: {fileID: 0}
  m_PrefabInternal: {fileID: 100100000}
  m_GameObject: {fileID: 1325396650886978}
  m_LocalRotation: {x: -0.087323114, y: 0.6783239, z: -0.039596487, w: 0.7284802}
  m_LocalPosition: {x: -0.49742106, y: 0.00000003101377, z: -0.000000004423782}
  m_LocalScale: {x: 0.9999976, y: 1.0000064, z: 1.0000073}
  m_Children:
  - {fileID: 4809619718930686}
  m_Father: {fileID: 4185532599860996}
  m_RootOrder: 0
  m_LocalEulerAnglesHint: {x: 0, y: 0, z: 0}
--- !u!4 &4781151809729038
Transform:
  m_ObjectHideFlags: 1
  m_PrefabParentObject: {fileID: 0}
  m_PrefabInternal: {fileID: 100100000}
  m_GameObject: {fileID: 1044986208252666}
  m_LocalRotation: {x: 0.0032708568, y: -0.13706538, z: 0.0066249175, w: 0.9905345}
  m_LocalPosition: {x: -0.12477114, y: 0.000000009633368, z: -0.00000000372529}
  m_LocalScale: {x: 1, y: 0.9999998, z: 1}
  m_Children:
  - {fileID: 4463725750210122}
  m_Father: {fileID: 4440900098688372}
  m_RootOrder: 2
  m_LocalEulerAnglesHint: {x: 0, y: 0, z: 0}
--- !u!4 &4782801732767474
Transform:
  m_ObjectHideFlags: 1
  m_PrefabParentObject: {fileID: 0}
  m_PrefabInternal: {fileID: 100100000}
  m_GameObject: {fileID: 1116704915092378}
  m_LocalRotation: {x: -0.5509776, y: -0.110071935, z: -0.44319683, w: 0.6984873}
  m_LocalPosition: {x: -0.01894149, y: 0.03163279, z: -0.026865542}
  m_LocalScale: {x: 0.99999994, y: 1.0000001, z: 1.0000001}
  m_Children: []
  m_Father: {fileID: 4976418673645792}
  m_RootOrder: 5
  m_LocalEulerAnglesHint: {x: 0, y: 0, z: 0}
--- !u!4 &4809619718930686
Transform:
  m_ObjectHideFlags: 1
  m_PrefabParentObject: {fileID: 0}
  m_PrefabInternal: {fileID: 100100000}
  m_GameObject: {fileID: 1420259066213270}
  m_LocalRotation: {x: -0.0000017439983, y: 0.116571024, z: 0.00000025735196, w: 0.99318236}
  m_LocalPosition: {x: -0.12195376, y: 0.000000017307684, z: -0.000000005122274}
  m_LocalScale: {x: 0.9999999, y: 0.99999994, z: 0.9999998}
  m_Children: []
  m_Father: {fileID: 4767711581630262}
  m_RootOrder: 0
  m_LocalEulerAnglesHint: {x: 0, y: 0, z: 0}
--- !u!4 &4813879810181648
Transform:
  m_ObjectHideFlags: 1
  m_PrefabParentObject: {fileID: 0}
  m_PrefabInternal: {fileID: 100100000}
  m_GameObject: {fileID: 1140859199454224}
  m_LocalRotation: {x: 0.7071068, y: -0, z: -0, w: 0.7071068}
  m_LocalPosition: {x: -0, y: 0, z: 0}
  m_LocalScale: {x: 1, y: 1, z: 1}
  m_Children: []
  m_Father: {fileID: 4195536940088170}
  m_RootOrder: 2
  m_LocalEulerAnglesHint: {x: 0, y: 0, z: 0}
--- !u!4 &4817094236622026
Transform:
  m_ObjectHideFlags: 1
  m_PrefabParentObject: {fileID: 0}
  m_PrefabInternal: {fileID: 100100000}
  m_GameObject: {fileID: 1537677420779234}
  m_LocalRotation: {x: 0.48506314, y: -0.047687985, z: 0.5145031, w: 0.7054971}
  m_LocalPosition: {x: -0.0054693474, y: -0.011983686, z: -0.010491088}
  m_LocalScale: {x: 1, y: 1, z: 1}
  m_Children:
  - {fileID: 4064846152962316}
  m_Father: {fileID: 4724320567550800}
  m_RootOrder: 4
  m_LocalEulerAnglesHint: {x: 0, y: 0, z: 0}
--- !u!4 &4819727327197094
Transform:
  m_ObjectHideFlags: 1
  m_PrefabParentObject: {fileID: 0}
  m_PrefabInternal: {fileID: 100100000}
  m_GameObject: {fileID: 1391899557138258}
  m_LocalRotation: {x: 0.6687375, y: 0.008170249, z: 0.22976093, w: 0.70705974}
  m_LocalPosition: {x: -0.025994131, y: -0.013685609, z: -0.003401965}
  m_LocalScale: {x: 0.9999997, y: 1, z: 0.9999998}
  m_Children:
  - {fileID: 4357349634261310}
  m_Father: {fileID: 4724320567550800}
  m_RootOrder: 0
  m_LocalEulerAnglesHint: {x: 0, y: 0, z: 0}
--- !u!4 &4828452130403398
Transform:
  m_ObjectHideFlags: 1
  m_PrefabParentObject: {fileID: 0}
  m_PrefabInternal: {fileID: 100100000}
  m_GameObject: {fileID: 1561408871086514}
  m_LocalRotation: {x: 0.7071068, y: -0, z: -0, w: 0.7071068}
  m_LocalPosition: {x: -0, y: 0, z: 0}
  m_LocalScale: {x: 1, y: 1, z: 1}
  m_Children: []
  m_Father: {fileID: 4195536940088170}
  m_RootOrder: 5
  m_LocalEulerAnglesHint: {x: 0, y: 0, z: 0}
--- !u!4 &4873163936578078
Transform:
  m_ObjectHideFlags: 1
  m_PrefabParentObject: {fileID: 0}
  m_PrefabInternal: {fileID: 100100000}
  m_GameObject: {fileID: 1221964428114236}
  m_LocalRotation: {x: 0.7071068, y: -0, z: -0, w: 0.7071068}
  m_LocalPosition: {x: -0, y: 0, z: 0}
  m_LocalScale: {x: 1, y: 1, z: 1}
  m_Children: []
  m_Father: {fileID: 4195536940088170}
  m_RootOrder: 3
  m_LocalEulerAnglesHint: {x: 0, y: 0, z: 0}
--- !u!4 &4918551068491890
Transform:
  m_ObjectHideFlags: 1
  m_PrefabParentObject: {fileID: 0}
  m_PrefabInternal: {fileID: 100100000}
  m_GameObject: {fileID: 1066872635305754}
  m_LocalRotation: {x: -0, y: -0, z: -0, w: 1}
  m_LocalPosition: {x: 0, y: 2.082, z: 0}
  m_LocalScale: {x: 1.0000005, y: 1, z: 1.0000005}
  m_Children: []
  m_Father: {fileID: 4226448918716116}
  m_RootOrder: 2
  m_LocalEulerAnglesHint: {x: 0, y: 0, z: 0}
--- !u!4 &4976418673645792
Transform:
  m_ObjectHideFlags: 1
  m_PrefabParentObject: {fileID: 0}
  m_PrefabInternal: {fileID: 100100000}
  m_GameObject: {fileID: 1726891453166660}
  m_LocalRotation: {x: 0.69982845, y: -0.022367094, z: 0.10119928, w: 0.7067521}
  m_LocalPosition: {x: -0.3154143, y: 0.000000013874338, z: 0.000000013969839}
  m_LocalScale: {x: 1, y: 0.99999994, z: 0.9999999}
  m_Children:
  - {fileID: 4149164709056632}
  - {fileID: 4244563651200670}
  - {fileID: 4704541766836434}
  - {fileID: 4571148388547972}
  - {fileID: 4728081176350184}
  - {fileID: 4782801732767474}
  m_Father: {fileID: 4661386404652804}
  m_RootOrder: 0
  m_LocalEulerAnglesHint: {x: 0, y: 0, z: 0}
--- !u!4 &4990918174898602
Transform:
  m_ObjectHideFlags: 1
  m_PrefabParentObject: {fileID: 0}
  m_PrefabInternal: {fileID: 100100000}
  m_GameObject: {fileID: 1755009732639872}
  m_LocalRotation: {x: 0.7071068, y: -0, z: -0, w: 0.7071068}
  m_LocalPosition: {x: -0, y: 0, z: 0}
  m_LocalScale: {x: 1, y: 1, z: 1}
  m_Children: []
  m_Father: {fileID: 4195536940088170}
  m_RootOrder: 7
  m_LocalEulerAnglesHint: {x: 0, y: 0, z: 0}
--- !u!54 &54043336199207082
Rigidbody:
  m_ObjectHideFlags: 1
  m_PrefabParentObject: {fileID: 0}
  m_PrefabInternal: {fileID: 100100000}
  m_GameObject: {fileID: 1983258972998824}
  serializedVersion: 2
  m_Mass: 1
  m_Drag: 0
  m_AngularDrag: 0.05
  m_UseGravity: 1
  m_IsKinematic: 1
  m_Interpolate: 0
  m_Constraints: 0
  m_CollisionDetection: 0
--- !u!54 &54147212335287234
Rigidbody:
  m_ObjectHideFlags: 1
  m_PrefabParentObject: {fileID: 0}
  m_PrefabInternal: {fileID: 100100000}
  m_GameObject: {fileID: 1304655650738458}
  serializedVersion: 2
  m_Mass: 1
  m_Drag: 0
  m_AngularDrag: 0.05
  m_UseGravity: 1
  m_IsKinematic: 1
  m_Interpolate: 0
  m_Constraints: 0
  m_CollisionDetection: 0
--- !u!54 &54328301732198270
Rigidbody:
  m_ObjectHideFlags: 1
  m_PrefabParentObject: {fileID: 0}
  m_PrefabInternal: {fileID: 100100000}
  m_GameObject: {fileID: 1880103228302924}
  serializedVersion: 2
  m_Mass: 1
  m_Drag: 0
  m_AngularDrag: 0.05
  m_UseGravity: 1
  m_IsKinematic: 1
  m_Interpolate: 0
  m_Constraints: 0
  m_CollisionDetection: 0
--- !u!54 &54388677611064122
Rigidbody:
  m_ObjectHideFlags: 1
  m_PrefabParentObject: {fileID: 0}
  m_PrefabInternal: {fileID: 100100000}
  m_GameObject: {fileID: 1095736701386084}
  serializedVersion: 2
  m_Mass: 1
  m_Drag: 0
  m_AngularDrag: 0.05
  m_UseGravity: 1
  m_IsKinematic: 1
  m_Interpolate: 0
  m_Constraints: 0
  m_CollisionDetection: 0
--- !u!54 &54427575567565908
Rigidbody:
  m_ObjectHideFlags: 1
  m_PrefabParentObject: {fileID: 0}
  m_PrefabInternal: {fileID: 100100000}
  m_GameObject: {fileID: 1162183590795522}
  serializedVersion: 2
  m_Mass: 1
  m_Drag: 0
  m_AngularDrag: 0.05
  m_UseGravity: 1
  m_IsKinematic: 1
  m_Interpolate: 0
  m_Constraints: 0
  m_CollisionDetection: 0
--- !u!54 &54662207970176540
Rigidbody:
  m_ObjectHideFlags: 1
  m_PrefabParentObject: {fileID: 0}
  m_PrefabInternal: {fileID: 100100000}
  m_GameObject: {fileID: 1912169856399082}
  serializedVersion: 2
  m_Mass: 1
  m_Drag: 0
  m_AngularDrag: 0.05
  m_UseGravity: 1
  m_IsKinematic: 1
  m_Interpolate: 0
  m_Constraints: 0
  m_CollisionDetection: 0
--- !u!54 &54735610886146482
Rigidbody:
  m_ObjectHideFlags: 1
  m_PrefabParentObject: {fileID: 0}
  m_PrefabInternal: {fileID: 100100000}
  m_GameObject: {fileID: 1119192326247512}
  serializedVersion: 2
  m_Mass: 1
  m_Drag: 0
  m_AngularDrag: 0.05
  m_UseGravity: 1
  m_IsKinematic: 1
  m_Interpolate: 0
  m_Constraints: 0
  m_CollisionDetection: 0
--- !u!54 &54741122441037412
Rigidbody:
  m_ObjectHideFlags: 1
  m_PrefabParentObject: {fileID: 0}
  m_PrefabInternal: {fileID: 100100000}
  m_GameObject: {fileID: 1439533155842012}
  serializedVersion: 2
  m_Mass: 1
  m_Drag: 0
  m_AngularDrag: 0.05
  m_UseGravity: 1
  m_IsKinematic: 1
  m_Interpolate: 0
  m_Constraints: 0
  m_CollisionDetection: 0
--- !u!54 &54797464722540380
Rigidbody:
  m_ObjectHideFlags: 1
  m_PrefabParentObject: {fileID: 0}
  m_PrefabInternal: {fileID: 100100000}
  m_GameObject: {fileID: 1416242658775220}
  serializedVersion: 2
  m_Mass: 1
  m_Drag: 0
  m_AngularDrag: 0.05
  m_UseGravity: 1
  m_IsKinematic: 1
  m_Interpolate: 0
  m_Constraints: 0
  m_CollisionDetection: 0
--- !u!54 &54857542481064230
Rigidbody:
  m_ObjectHideFlags: 1
  m_PrefabParentObject: {fileID: 0}
  m_PrefabInternal: {fileID: 100100000}
  m_GameObject: {fileID: 1858226895978954}
  serializedVersion: 2
  m_Mass: 1
  m_Drag: 0
  m_AngularDrag: 0.05
  m_UseGravity: 1
  m_IsKinematic: 1
  m_Interpolate: 0
  m_Constraints: 0
  m_CollisionDetection: 0
--- !u!54 &54893018502263176
Rigidbody:
  m_ObjectHideFlags: 1
  m_PrefabParentObject: {fileID: 0}
  m_PrefabInternal: {fileID: 100100000}
  m_GameObject: {fileID: 1813795524998676}
  serializedVersion: 2
  m_Mass: 1
  m_Drag: 0
  m_AngularDrag: 0.05
  m_UseGravity: 1
  m_IsKinematic: 1
  m_Interpolate: 0
  m_Constraints: 0
  m_CollisionDetection: 0
--- !u!54 &54912792974233108
Rigidbody:
  m_ObjectHideFlags: 1
  m_PrefabParentObject: {fileID: 0}
  m_PrefabInternal: {fileID: 100100000}
  m_GameObject: {fileID: 1411471022487758}
  serializedVersion: 2
  m_Mass: 1
  m_Drag: 0
  m_AngularDrag: 0.05
  m_UseGravity: 1
  m_IsKinematic: 1
  m_Interpolate: 0
  m_Constraints: 0
  m_CollisionDetection: 0
--- !u!54 &54956613350709360
Rigidbody:
  m_ObjectHideFlags: 1
  m_PrefabParentObject: {fileID: 0}
  m_PrefabInternal: {fileID: 100100000}
  m_GameObject: {fileID: 1044986208252666}
  serializedVersion: 2
  m_Mass: 1
  m_Drag: 0
  m_AngularDrag: 0.05
  m_UseGravity: 1
  m_IsKinematic: 1
  m_Interpolate: 0
  m_Constraints: 0
  m_CollisionDetection: 0
--- !u!65 &65012169023916506
BoxCollider:
  m_ObjectHideFlags: 1
  m_PrefabParentObject: {fileID: 0}
  m_PrefabInternal: {fileID: 100100000}
  m_GameObject: {fileID: 1162183590795522}
  m_Material: {fileID: 0}
  m_IsTrigger: 1
  m_Enabled: 1
  serializedVersion: 2
  m_Size: {x: 0.43, y: 0.29, z: 0.14}
  m_Center: {x: -0.09, y: 0, z: 0}
--- !u!65 &65068802022513106
BoxCollider:
  m_ObjectHideFlags: 1
  m_PrefabParentObject: {fileID: 0}
  m_PrefabInternal: {fileID: 100100000}
  m_GameObject: {fileID: 1858226895978954}
  m_Material: {fileID: 0}
  m_IsTrigger: 1
  m_Enabled: 1
  serializedVersion: 2
  m_Size: {x: 0.43, y: 0.11, z: 0.14}
  m_Center: {x: -0.15, y: 0, z: 0}
--- !u!65 &65084912681841776
BoxCollider:
  m_ObjectHideFlags: 1
  m_PrefabParentObject: {fileID: 0}
  m_PrefabInternal: {fileID: 100100000}
  m_GameObject: {fileID: 1416242658775220}
  m_Material: {fileID: 0}
  m_IsTrigger: 1
  m_Enabled: 1
  serializedVersion: 2
  m_Size: {x: 0.55, y: 0.11, z: 0.14}
  m_Center: {x: -0.25, y: 0, z: 0}
--- !u!65 &65208025669253998
BoxCollider:
  m_ObjectHideFlags: 1
  m_PrefabParentObject: {fileID: 0}
  m_PrefabInternal: {fileID: 100100000}
  m_GameObject: {fileID: 1304655650738458}
  m_Material: {fileID: 0}
  m_IsTrigger: 1
  m_Enabled: 1
  serializedVersion: 2
  m_Size: {x: 0.18, y: 0.17, z: 0.27}
  m_Center: {x: -0.06, y: 0, z: 0}
--- !u!65 &65247748922200384
BoxCollider:
  m_ObjectHideFlags: 1
  m_PrefabParentObject: {fileID: 0}
  m_PrefabInternal: {fileID: 100100000}
  m_GameObject: {fileID: 1119192326247512}
  m_Material: {fileID: 0}
  m_IsTrigger: 1
  m_Enabled: 1
  serializedVersion: 2
  m_Size: {x: 0.43, y: 0.29, z: 0.14}
  m_Center: {x: -0.09, y: 0, z: 0}
--- !u!65 &65380868104643804
BoxCollider:
  m_ObjectHideFlags: 1
  m_PrefabParentObject: {fileID: 0}
  m_PrefabInternal: {fileID: 100100000}
  m_GameObject: {fileID: 1880103228302924}
  m_Material: {fileID: 0}
  m_IsTrigger: 1
  m_Enabled: 1
  serializedVersion: 2
  m_Size: {x: 0.43, y: 0.11, z: 0.14}
  m_Center: {x: -0.15, y: 0, z: 0}
--- !u!65 &65495720858370782
BoxCollider:
  m_ObjectHideFlags: 1
  m_PrefabParentObject: {fileID: 0}
  m_PrefabInternal: {fileID: 100100000}
  m_GameObject: {fileID: 1439533155842012}
  m_Material: {fileID: 0}
  m_IsTrigger: 1
  m_Enabled: 1
  serializedVersion: 2
  m_Size: {x: 0.43, y: 0.11, z: 0.14}
  m_Center: {x: -0.15, y: 0, z: 0}
--- !u!65 &65808057013152264
BoxCollider:
  m_ObjectHideFlags: 1
  m_PrefabParentObject: {fileID: 0}
  m_PrefabInternal: {fileID: 100100000}
  m_GameObject: {fileID: 1813795524998676}
  m_Material: {fileID: 0}
  m_IsTrigger: 1
  m_Enabled: 1
  serializedVersion: 2
  m_Size: {x: 0.43, y: 0.11, z: 0.14}
  m_Center: {x: -0.15, y: 0, z: 0}
--- !u!65 &65859719738558492
BoxCollider:
  m_ObjectHideFlags: 1
  m_PrefabParentObject: {fileID: 0}
  m_PrefabInternal: {fileID: 100100000}
  m_GameObject: {fileID: 1095736701386084}
  m_Material: {fileID: 0}
  m_IsTrigger: 1
  m_Enabled: 1
  serializedVersion: 2
  m_Size: {x: 0.55, y: 0.11, z: 0.14}
  m_Center: {x: -0.25, y: 0, z: 0}
--- !u!65 &65889479074940306
BoxCollider:
  m_ObjectHideFlags: 1
  m_PrefabParentObject: {fileID: 0}
  m_PrefabInternal: {fileID: 100100000}
  m_GameObject: {fileID: 1912169856399082}
  m_Material: {fileID: 0}
  m_IsTrigger: 1
  m_Enabled: 1
  serializedVersion: 2
  m_Size: {x: 0.43, y: 0.11, z: 0.14}
  m_Center: {x: -0.15, y: 0, z: 0}
--- !u!65 &65897287034953636
BoxCollider:
  m_ObjectHideFlags: 1
  m_PrefabParentObject: {fileID: 0}
  m_PrefabInternal: {fileID: 100100000}
  m_GameObject: {fileID: 1044986208252666}
  m_Material: {fileID: 0}
  m_IsTrigger: 1
  m_Enabled: 1
  serializedVersion: 2
  m_Size: {x: 0.43, y: 0.29, z: 0.14}
  m_Center: {x: -0.09, y: 0, z: 0}
--- !u!65 &65970876180055622
BoxCollider:
  m_ObjectHideFlags: 1
  m_PrefabParentObject: {fileID: 0}
  m_PrefabInternal: {fileID: 100100000}
  m_GameObject: {fileID: 1411471022487758}
  m_Material: {fileID: 0}
  m_IsTrigger: 1
  m_Enabled: 1
  serializedVersion: 2
  m_Size: {x: 0.43, y: 0.11, z: 0.14}
  m_Center: {x: -0.15, y: 0, z: 0}
--- !u!95 &95575043972207788
Animator:
  serializedVersion: 3
  m_ObjectHideFlags: 1
  m_PrefabParentObject: {fileID: 0}
  m_PrefabInternal: {fileID: 100100000}
  m_GameObject: {fileID: 1835332534447136}
  m_Enabled: 1
  m_Avatar: {fileID: 9000000, guid: 227749b16d4a9467192b5d9499814f0b, type: 3}
  m_Controller: {fileID: 9100000, guid: eb091c6afc3b44c58aef99974b20ff4a, type: 2}
  m_CullingMode: 1
  m_UpdateMode: 0
  m_ApplyRootMotion: 0
  m_LinearVelocityBlending: 0
  m_WarningMessage: 
  m_HasTransformHierarchy: 1
  m_AllowConstantClipSamplingOptimization: 1
--- !u!114 &114003997066799726
MonoBehaviour:
  m_ObjectHideFlags: 1
  m_PrefabParentObject: {fileID: 0}
  m_PrefabInternal: {fileID: 100100000}
  m_GameObject: {fileID: 1835332534447136}
  m_Enabled: 1
  m_EditorHideFlags: 0
  m_Script: {fileID: 11500000, guid: cbdc98a0264354bfe80831e0dea039e1, type: 3}
  m_Name: 
  m_EditorClassIdentifier: 
  show: {fileID: 1614075435629262}
  hide: {fileID: 1392719221745324}
--- !u!114 &114211195163463408
MonoBehaviour:
  m_ObjectHideFlags: 1
  m_PrefabParentObject: {fileID: 0}
  m_PrefabInternal: {fileID: 100100000}
  m_GameObject: {fileID: 1983258972998824}
  m_Enabled: 1
  m_EditorHideFlags: 0
  m_Script: {fileID: 11500000, guid: b031bb65f16b247ebaf017df712f40d5, type: 3}
  m_Name: 
  m_EditorClassIdentifier: 
  animator: {fileID: 95575043972207788}
--- !u!114 &114249370761652326
MonoBehaviour:
  m_ObjectHideFlags: 1
  m_PrefabParentObject: {fileID: 0}
  m_PrefabInternal: {fileID: 100100000}
  m_GameObject: {fileID: 1983258972998824}
  m_Enabled: 1
  m_EditorHideFlags: 0
  m_Script: {fileID: 11500000, guid: dd7dcfbdc227ba84b89c30b9ebb0ba9f, type: 3}
  m_Name: 
  m_EditorClassIdentifier: 
  radius: 2
  interactionTransform: {fileID: 4381560702787898}
  ragdoll: {fileID: 114003997066799726}
--- !u!114 &114385736769394418
MonoBehaviour:
  m_ObjectHideFlags: 1
  m_PrefabParentObject: {fileID: 0}
  m_PrefabInternal: {fileID: 100100000}
  m_GameObject: {fileID: 1983258972998824}
  m_Enabled: 1
  m_EditorHideFlags: 0
  m_Script: {fileID: 11500000, guid: 3c19c025a0a453c41a2a45da10114b86, type: 3}
  m_Name: 
  m_EditorClassIdentifier: 
  lookRadius: 15
--- !u!114 &114479121695445514
MonoBehaviour:
  m_ObjectHideFlags: 1
  m_PrefabParentObject: {fileID: 0}
  m_PrefabInternal: {fileID: 100100000}
  m_GameObject: {fileID: 1983258972998824}
  m_Enabled: 1
  m_EditorHideFlags: 0
  m_Script: {fileID: 11500000, guid: 752a967723da2944c87d3c15368e9522, type: 3}
  m_Name: 
  m_EditorClassIdentifier: 
  maxHealth:
    baseValue: 40
  damage:
    baseValue: 15
  armor:
    baseValue: 3
--- !u!114 &114780158036684702
MonoBehaviour:
  m_ObjectHideFlags: 1
  m_PrefabParentObject: {fileID: 0}
  m_PrefabInternal: {fileID: 100100000}
  m_GameObject: {fileID: 1983258972998824}
  m_Enabled: 1
  m_EditorHideFlags: 0
  m_Script: {fileID: 11500000, guid: 36d804c429550ab41814887b51bb9fbf, type: 3}
  m_Name: 
  m_EditorClassIdentifier: 
  attackRate: 1
  healthBarPos: {fileID: 4918551068491890}
--- !u!136 &136785898280427900
CapsuleCollider:
  m_ObjectHideFlags: 1
  m_PrefabParentObject: {fileID: 0}
  m_PrefabInternal: {fileID: 100100000}
  m_GameObject: {fileID: 1983258972998824}
  m_Material: {fileID: 0}
  m_IsTrigger: 1
  m_Enabled: 1
  m_Radius: 0.2
  m_Height: 2.01
  m_Direction: 1
  m_Center: {x: 0, y: 1, z: 0}
--- !u!137 &137068244597286432
SkinnedMeshRenderer:
  m_ObjectHideFlags: 1
  m_PrefabParentObject: {fileID: 0}
  m_PrefabInternal: {fileID: 100100000}
  m_GameObject: {fileID: 1221964428114236}
  m_Enabled: 1
  m_CastShadows: 1
  m_ReceiveShadows: 1
  m_DynamicOccludee: 1
  m_MotionVectors: 1
  m_LightProbeUsage: 1
  m_ReflectionProbeUsage: 1
  m_Materials:
  - {fileID: 2100000, guid: fe055cc3e35ec4559bbbb8662e401536, type: 2}
  m_StaticBatchInfo:
    firstSubMesh: 0
    subMeshCount: 0
  m_StaticBatchRoot: {fileID: 0}
  m_ProbeAnchor: {fileID: 0}
  m_LightProbeVolumeOverride: {fileID: 0}
  m_ScaleInLightmap: 1
  m_PreserveUVs: 0
  m_IgnoreNormalsForChartDetection: 0
  m_ImportantGI: 0
  m_StitchLightmapSeams: 0
  m_SelectedEditorRenderState: 3
  m_MinimumChartSize: 4
  m_AutoUVMaxDistance: 0.5
  m_AutoUVMaxAngle: 89
  m_LightmapParameters: {fileID: 0}
  m_SortingLayerID: 0
  m_SortingLayer: 0
  m_SortingOrder: 0
  serializedVersion: 2
  m_Quality: 1
  m_UpdateWhenOffscreen: 1
  m_SkinnedMotionVectors: 1
  m_Mesh: {fileID: 4300016, guid: 227749b16d4a9467192b5d9499814f0b, type: 3}
  m_Bones:
  - {fileID: 4440900098688372}
  - {fileID: 4781151809729038}
  - {fileID: 4463725750210122}
  - {fileID: 4131283188659896}
  - {fileID: 4430748610066648}
  - {fileID: 4458566664509934}
  - {fileID: 4540342283253490}
  - {fileID: 4724320567550800}
  - {fileID: 4817094236622026}
  - {fileID: 4064846152962316}
  - {fileID: 4819727327197094}
  - {fileID: 4357349634261310}
  - {fileID: 4225908910874032}
  - {fileID: 4393191934648268}
  - {fileID: 4640880571658416}
  - {fileID: 4733434190644024}
  - {fileID: 4765388997636330}
  - {fileID: 4634482441631018}
  - {fileID: 4426542071785498}
  - {fileID: 4661386404652804}
  - {fileID: 4976418673645792}
  - {fileID: 4728081176350184}
  - {fileID: 4782801732767474}
  - {fileID: 4149164709056632}
  - {fileID: 4139671780087964}
  - {fileID: 4244563651200670}
  - {fileID: 4705961009660090}
  - {fileID: 4571148388547972}
  - {fileID: 4124641778303304}
  - {fileID: 4704541766836434}
  - {fileID: 4644254828221762}
  - {fileID: 4339561629842076}
  - {fileID: 4185532599860996}
  - {fileID: 4767711581630262}
  - {fileID: 4809619718930686}
  - {fileID: 4738057289678406}
  - {fileID: 4751452890086470}
  - {fileID: 4104051283611732}
  - {fileID: 4052532927750390}
  m_BlendShapeWeights: []
  m_RootBone: {fileID: 4440900098688372}
  m_AABB:
    m_Center: {x: 0.7142, y: -0.12138176, z: 0.14477584}
    m_Extent: {x: 0.28500637, y: 0.06540337, z: 0.12611893}
  m_DirtyAABB: 0
--- !u!137 &137184077400258750
SkinnedMeshRenderer:
  m_ObjectHideFlags: 1
  m_PrefabParentObject: {fileID: 0}
  m_PrefabInternal: {fileID: 100100000}
  m_GameObject: {fileID: 1238906246279386}
  m_Enabled: 1
  m_CastShadows: 1
  m_ReceiveShadows: 1
  m_DynamicOccludee: 1
  m_MotionVectors: 1
  m_LightProbeUsage: 1
  m_ReflectionProbeUsage: 1
  m_Materials:
  - {fileID: 2100000, guid: fe055cc3e35ec4559bbbb8662e401536, type: 2}
  - {fileID: 2100000, guid: 35429385438634042bcaba6aa5b9d8e5, type: 2}
  m_StaticBatchInfo:
    firstSubMesh: 0
    subMeshCount: 0
  m_StaticBatchRoot: {fileID: 0}
  m_ProbeAnchor: {fileID: 0}
  m_LightProbeVolumeOverride: {fileID: 0}
  m_ScaleInLightmap: 1
  m_PreserveUVs: 0
  m_IgnoreNormalsForChartDetection: 0
  m_ImportantGI: 0
  m_StitchLightmapSeams: 0
  m_SelectedEditorRenderState: 3
  m_MinimumChartSize: 4
  m_AutoUVMaxDistance: 0.5
  m_AutoUVMaxAngle: 89
  m_LightmapParameters: {fileID: 0}
  m_SortingLayerID: 0
  m_SortingLayer: 0
  m_SortingOrder: 0
  serializedVersion: 2
  m_Quality: 1
  m_UpdateWhenOffscreen: 1
  m_SkinnedMotionVectors: 1
  m_Mesh: {fileID: 4300000, guid: 227749b16d4a9467192b5d9499814f0b, type: 3}
  m_Bones:
  - {fileID: 4440900098688372}
  - {fileID: 4781151809729038}
  - {fileID: 4463725750210122}
  - {fileID: 4131283188659896}
  - {fileID: 4430748610066648}
  - {fileID: 4458566664509934}
  - {fileID: 4540342283253490}
  - {fileID: 4724320567550800}
  - {fileID: 4817094236622026}
  - {fileID: 4064846152962316}
  - {fileID: 4819727327197094}
  - {fileID: 4357349634261310}
  - {fileID: 4225908910874032}
  - {fileID: 4393191934648268}
  - {fileID: 4640880571658416}
  - {fileID: 4733434190644024}
  - {fileID: 4765388997636330}
  - {fileID: 4634482441631018}
  - {fileID: 4426542071785498}
  - {fileID: 4661386404652804}
  - {fileID: 4976418673645792}
  - {fileID: 4728081176350184}
  - {fileID: 4782801732767474}
  - {fileID: 4149164709056632}
  - {fileID: 4139671780087964}
  - {fileID: 4244563651200670}
  - {fileID: 4705961009660090}
  - {fileID: 4571148388547972}
  - {fileID: 4124641778303304}
  - {fileID: 4704541766836434}
  - {fileID: 4644254828221762}
  - {fileID: 4339561629842076}
  - {fileID: 4185532599860996}
  - {fileID: 4767711581630262}
  - {fileID: 4809619718930686}
  - {fileID: 4738057289678406}
  - {fileID: 4751452890086470}
  - {fileID: 4104051283611732}
  - {fileID: 4052532927750390}
  m_BlendShapeWeights: []
  m_RootBone: {fileID: 4440900098688372}
  m_AABB:
    m_Center: {x: -0.38256353, y: -0.006132677, z: -0.027735934}
    m_Extent: {x: 0.39093697, y: 0.17766413, z: 0.12951954}
  m_DirtyAABB: 0
--- !u!137 &137224641197172728
SkinnedMeshRenderer:
  m_ObjectHideFlags: 1
  m_PrefabParentObject: {fileID: 0}
  m_PrefabInternal: {fileID: 100100000}
  m_GameObject: {fileID: 1601306485996200}
  m_Enabled: 1
  m_CastShadows: 1
  m_ReceiveShadows: 1
  m_DynamicOccludee: 1
  m_MotionVectors: 1
  m_LightProbeUsage: 1
  m_ReflectionProbeUsage: 1
  m_Materials:
  - {fileID: 2100000, guid: fe055cc3e35ec4559bbbb8662e401536, type: 2}
  m_StaticBatchInfo:
    firstSubMesh: 0
    subMeshCount: 0
  m_StaticBatchRoot: {fileID: 0}
  m_ProbeAnchor: {fileID: 0}
  m_LightProbeVolumeOverride: {fileID: 0}
  m_ScaleInLightmap: 1
  m_PreserveUVs: 0
  m_IgnoreNormalsForChartDetection: 0
  m_ImportantGI: 0
  m_StitchLightmapSeams: 0
  m_SelectedEditorRenderState: 3
  m_MinimumChartSize: 4
  m_AutoUVMaxDistance: 0.5
  m_AutoUVMaxAngle: 89
  m_LightmapParameters: {fileID: 0}
  m_SortingLayerID: 0
  m_SortingLayer: 0
  m_SortingOrder: 0
  serializedVersion: 2
  m_Quality: 1
  m_UpdateWhenOffscreen: 1
  m_SkinnedMotionVectors: 1
  m_Mesh: {fileID: 4300014, guid: 227749b16d4a9467192b5d9499814f0b, type: 3}
  m_Bones:
  - {fileID: 4440900098688372}
  - {fileID: 4781151809729038}
  - {fileID: 4463725750210122}
  - {fileID: 4131283188659896}
  - {fileID: 4430748610066648}
  - {fileID: 4458566664509934}
  - {fileID: 4540342283253490}
  - {fileID: 4724320567550800}
  - {fileID: 4817094236622026}
  - {fileID: 4064846152962316}
  - {fileID: 4819727327197094}
  - {fileID: 4357349634261310}
  - {fileID: 4225908910874032}
  - {fileID: 4393191934648268}
  - {fileID: 4640880571658416}
  - {fileID: 4733434190644024}
  - {fileID: 4765388997636330}
  - {fileID: 4634482441631018}
  - {fileID: 4426542071785498}
  - {fileID: 4661386404652804}
  - {fileID: 4976418673645792}
  - {fileID: 4728081176350184}
  - {fileID: 4782801732767474}
  - {fileID: 4149164709056632}
  - {fileID: 4139671780087964}
  - {fileID: 4244563651200670}
  - {fileID: 4705961009660090}
  - {fileID: 4571148388547972}
  - {fileID: 4124641778303304}
  - {fileID: 4704541766836434}
  - {fileID: 4644254828221762}
  - {fileID: 4339561629842076}
  - {fileID: 4185532599860996}
  - {fileID: 4767711581630262}
  - {fileID: 4809619718930686}
  - {fileID: 4738057289678406}
  - {fileID: 4751452890086470}
  - {fileID: 4104051283611732}
  - {fileID: 4052532927750390}
  m_BlendShapeWeights: []
  m_RootBone: {fileID: 4440900098688372}
  m_AABB:
    m_Center: {x: 0.70581836, y: 0.15795307, z: 0.14526397}
    m_Extent: {x: 0.28444552, y: 0.07474333, z: 0.12603027}
  m_DirtyAABB: 0
--- !u!137 &137266496793935834
SkinnedMeshRenderer:
  m_ObjectHideFlags: 1
  m_PrefabParentObject: {fileID: 0}
  m_PrefabInternal: {fileID: 100100000}
  m_GameObject: {fileID: 1019942368404724}
  m_Enabled: 1
  m_CastShadows: 1
  m_ReceiveShadows: 1
  m_DynamicOccludee: 1
  m_MotionVectors: 1
  m_LightProbeUsage: 1
  m_ReflectionProbeUsage: 1
  m_Materials:
  - {fileID: 2100000, guid: fe055cc3e35ec4559bbbb8662e401536, type: 2}
  - {fileID: 2100000, guid: e66e9526605c340fbb14aa175fa446f4, type: 2}
  - {fileID: 2100000, guid: 736bd02f6a6784fe383801c3bb6e5ab3, type: 2}
  m_StaticBatchInfo:
    firstSubMesh: 0
    subMeshCount: 0
  m_StaticBatchRoot: {fileID: 0}
  m_ProbeAnchor: {fileID: 0}
  m_LightProbeVolumeOverride: {fileID: 0}
  m_ScaleInLightmap: 1
  m_PreserveUVs: 0
  m_IgnoreNormalsForChartDetection: 0
  m_ImportantGI: 0
  m_StitchLightmapSeams: 0
  m_SelectedEditorRenderState: 3
  m_MinimumChartSize: 4
  m_AutoUVMaxDistance: 0.5
  m_AutoUVMaxAngle: 89
  m_LightmapParameters: {fileID: 0}
  m_SortingLayerID: 0
  m_SortingLayer: 0
  m_SortingOrder: 0
  serializedVersion: 2
  m_Quality: 1
  m_UpdateWhenOffscreen: 1
  m_SkinnedMotionVectors: 1
  m_Mesh: {fileID: 4300002, guid: 227749b16d4a9467192b5d9499814f0b, type: 3}
  m_Bones:
  - {fileID: 4440900098688372}
  - {fileID: 4781151809729038}
  - {fileID: 4463725750210122}
  - {fileID: 4131283188659896}
  - {fileID: 4430748610066648}
  - {fileID: 4458566664509934}
  - {fileID: 4540342283253490}
  - {fileID: 4724320567550800}
  - {fileID: 4817094236622026}
  - {fileID: 4064846152962316}
  - {fileID: 4819727327197094}
  - {fileID: 4357349634261310}
  - {fileID: 4225908910874032}
  - {fileID: 4393191934648268}
  - {fileID: 4640880571658416}
  - {fileID: 4733434190644024}
  - {fileID: 4765388997636330}
  - {fileID: 4634482441631018}
  - {fileID: 4426542071785498}
  - {fileID: 4661386404652804}
  - {fileID: 4976418673645792}
  - {fileID: 4728081176350184}
  - {fileID: 4782801732767474}
  - {fileID: 4149164709056632}
  - {fileID: 4139671780087964}
  - {fileID: 4244563651200670}
  - {fileID: 4705961009660090}
  - {fileID: 4571148388547972}
  - {fileID: 4124641778303304}
  - {fileID: 4704541766836434}
  - {fileID: 4644254828221762}
  - {fileID: 4339561629842076}
  - {fileID: 4185532599860996}
  - {fileID: 4767711581630262}
  - {fileID: 4809619718930686}
  - {fileID: 4738057289678406}
  - {fileID: 4751452890086470}
  - {fileID: 4104051283611732}
  - {fileID: 4052532927750390}
  m_BlendShapeWeights: []
  m_RootBone: {fileID: 4440900098688372}
  m_AABB:
    m_Center: {x: -0.81900936, y: -0.015612282, z: -0.09085825}
    m_Extent: {x: 0.14056689, y: 0.091532074, z: 0.15261415}
  m_DirtyAABB: 0
--- !u!137 &137336902862791162
SkinnedMeshRenderer:
  m_ObjectHideFlags: 1
  m_PrefabParentObject: {fileID: 0}
  m_PrefabInternal: {fileID: 100100000}
  m_GameObject: {fileID: 1131934883076224}
  m_Enabled: 1
  m_CastShadows: 1
  m_ReceiveShadows: 1
  m_DynamicOccludee: 1
  m_MotionVectors: 1
  m_LightProbeUsage: 1
  m_ReflectionProbeUsage: 1
  m_Materials:
  - {fileID: 2100000, guid: fe055cc3e35ec4559bbbb8662e401536, type: 2}
  m_StaticBatchInfo:
    firstSubMesh: 0
    subMeshCount: 0
  m_StaticBatchRoot: {fileID: 0}
  m_ProbeAnchor: {fileID: 0}
  m_LightProbeVolumeOverride: {fileID: 0}
  m_ScaleInLightmap: 1
  m_PreserveUVs: 0
  m_IgnoreNormalsForChartDetection: 0
  m_ImportantGI: 0
  m_StitchLightmapSeams: 0
  m_SelectedEditorRenderState: 3
  m_MinimumChartSize: 4
  m_AutoUVMaxDistance: 0.5
  m_AutoUVMaxAngle: 89
  m_LightmapParameters: {fileID: 0}
  m_SortingLayerID: 0
  m_SortingLayer: 0
  m_SortingOrder: 0
  serializedVersion: 2
  m_Quality: 1
  m_UpdateWhenOffscreen: 1
  m_SkinnedMotionVectors: 1
  m_Mesh: {fileID: 4300010, guid: 227749b16d4a9467192b5d9499814f0b, type: 3}
  m_Bones:
  - {fileID: 4440900098688372}
  - {fileID: 4781151809729038}
  - {fileID: 4463725750210122}
  - {fileID: 4131283188659896}
  - {fileID: 4430748610066648}
  - {fileID: 4458566664509934}
  - {fileID: 4540342283253490}
  - {fileID: 4724320567550800}
  - {fileID: 4817094236622026}
  - {fileID: 4064846152962316}
  - {fileID: 4819727327197094}
  - {fileID: 4357349634261310}
  - {fileID: 4225908910874032}
  - {fileID: 4393191934648268}
  - {fileID: 4640880571658416}
  - {fileID: 4733434190644024}
  - {fileID: 4765388997636330}
  - {fileID: 4634482441631018}
  - {fileID: 4426542071785498}
  - {fileID: 4661386404652804}
  - {fileID: 4976418673645792}
  - {fileID: 4728081176350184}
  - {fileID: 4782801732767474}
  - {fileID: 4149164709056632}
  - {fileID: 4139671780087964}
  - {fileID: 4244563651200670}
  - {fileID: 4705961009660090}
  - {fileID: 4571148388547972}
  - {fileID: 4124641778303304}
  - {fileID: 4704541766836434}
  - {fileID: 4644254828221762}
  - {fileID: 4339561629842076}
  - {fileID: 4185532599860996}
  - {fileID: 4767711581630262}
  - {fileID: 4809619718930686}
  - {fileID: 4738057289678406}
  - {fileID: 4751452890086470}
  - {fileID: 4104051283611732}
  - {fileID: 4052532927750390}
  m_BlendShapeWeights: []
  m_RootBone: {fileID: 4440900098688372}
  m_AABB:
    m_Center: {x: -0.009335563, y: -0.29822198, z: -0.025401276}
    m_Extent: {x: 0.22712336, y: 0.039467365, z: 0.096780464}
  m_DirtyAABB: 0
--- !u!137 &137341379882129154
SkinnedMeshRenderer:
  m_ObjectHideFlags: 1
  m_PrefabParentObject: {fileID: 0}
  m_PrefabInternal: {fileID: 100100000}
  m_GameObject: {fileID: 1392719221745324}
  m_Enabled: 1
  m_CastShadows: 1
  m_ReceiveShadows: 1
  m_DynamicOccludee: 1
  m_MotionVectors: 1
  m_LightProbeUsage: 1
  m_ReflectionProbeUsage: 1
  m_Materials:
  - {fileID: 2100000, guid: fe055cc3e35ec4559bbbb8662e401536, type: 2}
  - {fileID: 2100000, guid: 35429385438634042bcaba6aa5b9d8e5, type: 2}
  - {fileID: 2100000, guid: e66e9526605c340fbb14aa175fa446f4, type: 2}
  - {fileID: 2100000, guid: 736bd02f6a6784fe383801c3bb6e5ab3, type: 2}
  m_StaticBatchInfo:
    firstSubMesh: 0
    subMeshCount: 0
  m_StaticBatchRoot: {fileID: 0}
  m_ProbeAnchor: {fileID: 0}
  m_LightProbeVolumeOverride: {fileID: 0}
  m_ScaleInLightmap: 1
  m_PreserveUVs: 0
  m_IgnoreNormalsForChartDetection: 0
  m_ImportantGI: 0
  m_StitchLightmapSeams: 0
  m_SelectedEditorRenderState: 3
  m_MinimumChartSize: 4
  m_AutoUVMaxDistance: 0.5
  m_AutoUVMaxAngle: 89
  m_LightmapParameters: {fileID: 0}
  m_SortingLayerID: 0
  m_SortingLayer: 0
  m_SortingOrder: 0
  serializedVersion: 2
  m_Quality: 0
  m_UpdateWhenOffscreen: 0
  m_SkinnedMotionVectors: 1
  m_Mesh: {fileID: 4300022, guid: 227749b16d4a9467192b5d9499814f0b, type: 3}
  m_Bones:
  - {fileID: 4440900098688372}
  - {fileID: 4781151809729038}
  - {fileID: 4463725750210122}
  - {fileID: 4131283188659896}
  - {fileID: 4430748610066648}
  - {fileID: 4458566664509934}
  - {fileID: 4540342283253490}
  - {fileID: 4724320567550800}
  - {fileID: 4817094236622026}
  - {fileID: 4064846152962316}
  - {fileID: 4819727327197094}
  - {fileID: 4357349634261310}
  - {fileID: 4225908910874032}
  - {fileID: 4393191934648268}
  - {fileID: 4640880571658416}
  - {fileID: 4733434190644024}
  - {fileID: 4765388997636330}
  - {fileID: 4634482441631018}
  - {fileID: 4426542071785498}
  - {fileID: 4661386404652804}
  - {fileID: 4976418673645792}
  - {fileID: 4728081176350184}
  - {fileID: 4782801732767474}
  - {fileID: 4149164709056632}
  - {fileID: 4139671780087964}
  - {fileID: 4244563651200670}
  - {fileID: 4705961009660090}
  - {fileID: 4571148388547972}
  - {fileID: 4124641778303304}
  - {fileID: 4704541766836434}
  - {fileID: 4644254828221762}
  - {fileID: 4339561629842076}
  - {fileID: 4185532599860996}
  - {fileID: 4767711581630262}
  - {fileID: 4809619718930686}
  - {fileID: 4738057289678406}
  - {fileID: 4751452890086470}
  - {fileID: 4104051283611732}
  - {fileID: 4052532927750390}
  m_BlendShapeWeights: []
  m_RootBone: {fileID: 4440900098688372}
  m_AABB:
    m_Center: {x: 0.019815087, y: 0.0041549653, z: 0.013910919}
    m_Extent: {x: 0.97939134, y: 0.34184432, z: 0.25738332}
  m_DirtyAABB: 0
--- !u!137 &137469113347559306
SkinnedMeshRenderer:
  m_ObjectHideFlags: 1
  m_PrefabParentObject: {fileID: 0}
  m_PrefabInternal: {fileID: 100100000}
  m_GameObject: {fileID: 1107363363256780}
  m_Enabled: 1
  m_CastShadows: 1
  m_ReceiveShadows: 1
  m_DynamicOccludee: 1
  m_MotionVectors: 1
  m_LightProbeUsage: 1
  m_ReflectionProbeUsage: 1
  m_Materials:
  - {fileID: 2100000, guid: fe055cc3e35ec4559bbbb8662e401536, type: 2}
  m_StaticBatchInfo:
    firstSubMesh: 0
    subMeshCount: 0
  m_StaticBatchRoot: {fileID: 0}
  m_ProbeAnchor: {fileID: 0}
  m_LightProbeVolumeOverride: {fileID: 0}
  m_ScaleInLightmap: 1
  m_PreserveUVs: 0
  m_IgnoreNormalsForChartDetection: 0
  m_ImportantGI: 0
  m_StitchLightmapSeams: 0
  m_SelectedEditorRenderState: 3
  m_MinimumChartSize: 4
  m_AutoUVMaxDistance: 0.5
  m_AutoUVMaxAngle: 89
  m_LightmapParameters: {fileID: 0}
  m_SortingLayerID: 0
  m_SortingLayer: 0
  m_SortingOrder: 0
  serializedVersion: 2
  m_Quality: 1
  m_UpdateWhenOffscreen: 1
  m_SkinnedMotionVectors: 1
  m_Mesh: {fileID: 4300006, guid: 227749b16d4a9467192b5d9499814f0b, type: 3}
  m_Bones:
  - {fileID: 4440900098688372}
  - {fileID: 4781151809729038}
  - {fileID: 4463725750210122}
  - {fileID: 4131283188659896}
  - {fileID: 4430748610066648}
  - {fileID: 4458566664509934}
  - {fileID: 4540342283253490}
  - {fileID: 4724320567550800}
  - {fileID: 4817094236622026}
  - {fileID: 4064846152962316}
  - {fileID: 4819727327197094}
  - {fileID: 4357349634261310}
  - {fileID: 4225908910874032}
  - {fileID: 4393191934648268}
  - {fileID: 4640880571658416}
  - {fileID: 4733434190644024}
  - {fileID: 4765388997636330}
  - {fileID: 4634482441631018}
  - {fileID: 4426542071785498}
  - {fileID: 4661386404652804}
  - {fileID: 4976418673645792}
  - {fileID: 4728081176350184}
  - {fileID: 4782801732767474}
  - {fileID: 4149164709056632}
  - {fileID: 4139671780087964}
  - {fileID: 4244563651200670}
  - {fileID: 4705961009660090}
  - {fileID: 4571148388547972}
  - {fileID: 4124641778303304}
  - {fileID: 4704541766836434}
  - {fileID: 4644254828221762}
  - {fileID: 4339561629842076}
  - {fileID: 4185532599860996}
  - {fileID: 4767711581630262}
  - {fileID: 4809619718930686}
  - {fileID: 4738057289678406}
  - {fileID: 4751452890086470}
  - {fileID: 4104051283611732}
  - {fileID: 4052532927750390}
  m_BlendShapeWeights: []
  m_RootBone: {fileID: 4440900098688372}
  m_AABB:
    m_Center: {x: -0.40630043, y: 0.21669202, z: -0.08444071}
    m_Extent: {x: 0.2017287, y: 0.10341613, z: 0.048114214}
  m_DirtyAABB: 0
--- !u!137 &137499582975265584
SkinnedMeshRenderer:
  m_ObjectHideFlags: 1
  m_PrefabParentObject: {fileID: 0}
  m_PrefabInternal: {fileID: 100100000}
  m_GameObject: {fileID: 1755009732639872}
  m_Enabled: 1
  m_CastShadows: 1
  m_ReceiveShadows: 1
  m_DynamicOccludee: 1
  m_MotionVectors: 1
  m_LightProbeUsage: 1
  m_ReflectionProbeUsage: 1
  m_Materials:
  - {fileID: 2100000, guid: fe055cc3e35ec4559bbbb8662e401536, type: 2}
  m_StaticBatchInfo:
    firstSubMesh: 0
    subMeshCount: 0
  m_StaticBatchRoot: {fileID: 0}
  m_ProbeAnchor: {fileID: 0}
  m_LightProbeVolumeOverride: {fileID: 0}
  m_ScaleInLightmap: 1
  m_PreserveUVs: 0
  m_IgnoreNormalsForChartDetection: 0
  m_ImportantGI: 0
  m_StitchLightmapSeams: 0
  m_SelectedEditorRenderState: 3
  m_MinimumChartSize: 4
  m_AutoUVMaxDistance: 0.5
  m_AutoUVMaxAngle: 89
  m_LightmapParameters: {fileID: 0}
  m_SortingLayerID: 0
  m_SortingLayer: 0
  m_SortingOrder: 0
  serializedVersion: 2
  m_Quality: 1
  m_UpdateWhenOffscreen: 1
  m_SkinnedMotionVectors: 1
  m_Mesh: {fileID: 4300008, guid: 227749b16d4a9467192b5d9499814f0b, type: 3}
  m_Bones:
  - {fileID: 4440900098688372}
  - {fileID: 4781151809729038}
  - {fileID: 4463725750210122}
  - {fileID: 4131283188659896}
  - {fileID: 4430748610066648}
  - {fileID: 4458566664509934}
  - {fileID: 4540342283253490}
  - {fileID: 4724320567550800}
  - {fileID: 4817094236622026}
  - {fileID: 4064846152962316}
  - {fileID: 4819727327197094}
  - {fileID: 4357349634261310}
  - {fileID: 4225908910874032}
  - {fileID: 4393191934648268}
  - {fileID: 4640880571658416}
  - {fileID: 4733434190644024}
  - {fileID: 4765388997636330}
  - {fileID: 4634482441631018}
  - {fileID: 4426542071785498}
  - {fileID: 4661386404652804}
  - {fileID: 4976418673645792}
  - {fileID: 4728081176350184}
  - {fileID: 4782801732767474}
  - {fileID: 4149164709056632}
  - {fileID: 4139671780087964}
  - {fileID: 4244563651200670}
  - {fileID: 4705961009660090}
  - {fileID: 4571148388547972}
  - {fileID: 4124641778303304}
  - {fileID: 4704541766836434}
  - {fileID: 4644254828221762}
  - {fileID: 4339561629842076}
  - {fileID: 4185532599860996}
  - {fileID: 4767711581630262}
  - {fileID: 4809619718930686}
  - {fileID: 4738057289678406}
  - {fileID: 4751452890086470}
  - {fileID: 4104051283611732}
  - {fileID: 4052532927750390}
  m_BlendShapeWeights: []
  m_RootBone: {fileID: 4440900098688372}
  m_AABB:
    m_Center: {x: -0.39618015, y: -0.22896333, z: -0.085188985}
    m_Extent: {x: 0.20357788, y: 0.09523983, z: 0.048435017}
  m_DirtyAABB: 0
--- !u!137 &137624256962342100
SkinnedMeshRenderer:
  m_ObjectHideFlags: 1
  m_PrefabParentObject: {fileID: 0}
  m_PrefabInternal: {fileID: 100100000}
  m_GameObject: {fileID: 1140859199454224}
  m_Enabled: 1
  m_CastShadows: 1
  m_ReceiveShadows: 1
  m_DynamicOccludee: 1
  m_MotionVectors: 1
  m_LightProbeUsage: 1
  m_ReflectionProbeUsage: 1
  m_Materials:
  - {fileID: 2100000, guid: fe055cc3e35ec4559bbbb8662e401536, type: 2}
  m_StaticBatchInfo:
    firstSubMesh: 0
    subMeshCount: 0
  m_StaticBatchRoot: {fileID: 0}
  m_ProbeAnchor: {fileID: 0}
  m_LightProbeVolumeOverride: {fileID: 0}
  m_ScaleInLightmap: 1
  m_PreserveUVs: 0
  m_IgnoreNormalsForChartDetection: 0
  m_ImportantGI: 0
  m_StitchLightmapSeams: 0
  m_SelectedEditorRenderState: 3
  m_MinimumChartSize: 4
  m_AutoUVMaxDistance: 0.5
  m_AutoUVMaxAngle: 89
  m_LightmapParameters: {fileID: 0}
  m_SortingLayerID: 0
  m_SortingLayer: 0
  m_SortingOrder: 0
  serializedVersion: 2
  m_Quality: 1
  m_UpdateWhenOffscreen: 1
  m_SkinnedMotionVectors: 1
  m_Mesh: {fileID: 4300018, guid: 227749b16d4a9467192b5d9499814f0b, type: 3}
  m_Bones:
  - {fileID: 4440900098688372}
  - {fileID: 4781151809729038}
  - {fileID: 4463725750210122}
  - {fileID: 4131283188659896}
  - {fileID: 4430748610066648}
  - {fileID: 4458566664509934}
  - {fileID: 4540342283253490}
  - {fileID: 4724320567550800}
  - {fileID: 4817094236622026}
  - {fileID: 4064846152962316}
  - {fileID: 4819727327197094}
  - {fileID: 4357349634261310}
  - {fileID: 4225908910874032}
  - {fileID: 4393191934648268}
  - {fileID: 4640880571658416}
  - {fileID: 4733434190644024}
  - {fileID: 4765388997636330}
  - {fileID: 4634482441631018}
  - {fileID: 4426542071785498}
  - {fileID: 4661386404652804}
  - {fileID: 4976418673645792}
  - {fileID: 4728081176350184}
  - {fileID: 4782801732767474}
  - {fileID: 4149164709056632}
  - {fileID: 4139671780087964}
  - {fileID: 4244563651200670}
  - {fileID: 4705961009660090}
  - {fileID: 4571148388547972}
  - {fileID: 4124641778303304}
  - {fileID: 4704541766836434}
  - {fileID: 4644254828221762}
  - {fileID: 4339561629842076}
  - {fileID: 4185532599860996}
  - {fileID: 4767711581630262}
  - {fileID: 4809619718930686}
  - {fileID: 4738057289678406}
  - {fileID: 4751452890086470}
  - {fileID: 4104051283611732}
  - {fileID: 4052532927750390}
  m_BlendShapeWeights: []
  m_RootBone: {fileID: 4440900098688372}
  m_AABB:
    m_Center: {x: 0.20304364, y: 0.14812227, z: 0.06887348}
    m_Extent: {x: 0.24479982, y: 0.0751213, z: 0.08951026}
  m_DirtyAABB: 0
--- !u!137 &137765382042741998
SkinnedMeshRenderer:
  m_ObjectHideFlags: 1
  m_PrefabParentObject: {fileID: 0}
  m_PrefabInternal: {fileID: 100100000}
  m_GameObject: {fileID: 1278832742909466}
  m_Enabled: 1
  m_CastShadows: 1
  m_ReceiveShadows: 1
  m_DynamicOccludee: 1
  m_MotionVectors: 1
  m_LightProbeUsage: 1
  m_ReflectionProbeUsage: 1
  m_Materials:
  - {fileID: 2100000, guid: fe055cc3e35ec4559bbbb8662e401536, type: 2}
  m_StaticBatchInfo:
    firstSubMesh: 0
    subMeshCount: 0
  m_StaticBatchRoot: {fileID: 0}
  m_ProbeAnchor: {fileID: 0}
  m_LightProbeVolumeOverride: {fileID: 0}
  m_ScaleInLightmap: 1
  m_PreserveUVs: 0
  m_IgnoreNormalsForChartDetection: 0
  m_ImportantGI: 0
  m_StitchLightmapSeams: 0
  m_SelectedEditorRenderState: 3
  m_MinimumChartSize: 4
  m_AutoUVMaxDistance: 0.5
  m_AutoUVMaxAngle: 89
  m_LightmapParameters: {fileID: 0}
  m_SortingLayerID: 0
  m_SortingLayer: 0
  m_SortingOrder: 0
  serializedVersion: 2
  m_Quality: 1
  m_UpdateWhenOffscreen: 1
  m_SkinnedMotionVectors: 1
  m_Mesh: {fileID: 4300020, guid: 227749b16d4a9467192b5d9499814f0b, type: 3}
  m_Bones:
  - {fileID: 4440900098688372}
  - {fileID: 4781151809729038}
  - {fileID: 4463725750210122}
  - {fileID: 4131283188659896}
  - {fileID: 4430748610066648}
  - {fileID: 4458566664509934}
  - {fileID: 4540342283253490}
  - {fileID: 4724320567550800}
  - {fileID: 4817094236622026}
  - {fileID: 4064846152962316}
  - {fileID: 4819727327197094}
  - {fileID: 4357349634261310}
  - {fileID: 4225908910874032}
  - {fileID: 4393191934648268}
  - {fileID: 4640880571658416}
  - {fileID: 4733434190644024}
  - {fileID: 4765388997636330}
  - {fileID: 4634482441631018}
  - {fileID: 4426542071785498}
  - {fileID: 4661386404652804}
  - {fileID: 4976418673645792}
  - {fileID: 4728081176350184}
  - {fileID: 4782801732767474}
  - {fileID: 4149164709056632}
  - {fileID: 4139671780087964}
  - {fileID: 4244563651200670}
  - {fileID: 4705961009660090}
  - {fileID: 4571148388547972}
  - {fileID: 4124641778303304}
  - {fileID: 4704541766836434}
  - {fileID: 4644254828221762}
  - {fileID: 4339561629842076}
  - {fileID: 4185532599860996}
  - {fileID: 4767711581630262}
  - {fileID: 4809619718930686}
  - {fileID: 4738057289678406}
  - {fileID: 4751452890086470}
  - {fileID: 4104051283611732}
  - {fileID: 4052532927750390}
  m_BlendShapeWeights: []
  m_RootBone: {fileID: 4440900098688372}
  m_AABB:
    m_Center: {x: 0.20943415, y: -0.1328009, z: 0.0682584}
    m_Extent: {x: 0.24293923, y: 0.06798024, z: 0.08957281}
  m_DirtyAABB: 0
--- !u!137 &137929467141655506
SkinnedMeshRenderer:
  m_ObjectHideFlags: 1
  m_PrefabParentObject: {fileID: 0}
  m_PrefabInternal: {fileID: 100100000}
  m_GameObject: {fileID: 1561408871086514}
  m_Enabled: 1
  m_CastShadows: 1
  m_ReceiveShadows: 1
  m_DynamicOccludee: 1
  m_MotionVectors: 1
  m_LightProbeUsage: 1
  m_ReflectionProbeUsage: 1
  m_Materials:
  - {fileID: 2100000, guid: fe055cc3e35ec4559bbbb8662e401536, type: 2}
  m_StaticBatchInfo:
    firstSubMesh: 0
    subMeshCount: 0
  m_StaticBatchRoot: {fileID: 0}
  m_ProbeAnchor: {fileID: 0}
  m_LightProbeVolumeOverride: {fileID: 0}
  m_ScaleInLightmap: 1
  m_PreserveUVs: 0
  m_IgnoreNormalsForChartDetection: 0
  m_ImportantGI: 0
  m_StitchLightmapSeams: 0
  m_SelectedEditorRenderState: 3
  m_MinimumChartSize: 4
  m_AutoUVMaxDistance: 0.5
  m_AutoUVMaxAngle: 89
  m_LightmapParameters: {fileID: 0}
  m_SortingLayerID: 0
  m_SortingLayer: 0
  m_SortingOrder: 0
  serializedVersion: 2
  m_Quality: 1
  m_UpdateWhenOffscreen: 1
  m_SkinnedMotionVectors: 1
  m_Mesh: {fileID: 4300012, guid: 227749b16d4a9467192b5d9499814f0b, type: 3}
  m_Bones:
  - {fileID: 4440900098688372}
  - {fileID: 4781151809729038}
  - {fileID: 4463725750210122}
  - {fileID: 4131283188659896}
  - {fileID: 4430748610066648}
  - {fileID: 4458566664509934}
  - {fileID: 4540342283253490}
  - {fileID: 4724320567550800}
  - {fileID: 4817094236622026}
  - {fileID: 4064846152962316}
  - {fileID: 4819727327197094}
  - {fileID: 4357349634261310}
  - {fileID: 4225908910874032}
  - {fileID: 4393191934648268}
  - {fileID: 4640880571658416}
  - {fileID: 4733434190644024}
  - {fileID: 4765388997636330}
  - {fileID: 4634482441631018}
  - {fileID: 4426542071785498}
  - {fileID: 4661386404652804}
  - {fileID: 4976418673645792}
  - {fileID: 4728081176350184}
  - {fileID: 4782801732767474}
  - {fileID: 4149164709056632}
  - {fileID: 4139671780087964}
  - {fileID: 4244563651200670}
  - {fileID: 4705961009660090}
  - {fileID: 4571148388547972}
  - {fileID: 4124641778303304}
  - {fileID: 4704541766836434}
  - {fileID: 4644254828221762}
  - {fileID: 4339561629842076}
  - {fileID: 4185532599860996}
  - {fileID: 4767711581630262}
  - {fileID: 4809619718930686}
  - {fileID: 4738057289678406}
  - {fileID: 4751452890086470}
  - {fileID: 4104051283611732}
  - {fileID: 4052532927750390}
  m_BlendShapeWeights: []
  m_RootBone: {fileID: 4440900098688372}
  m_AABB:
    m_Center: {x: -0.042852774, y: -0.00049710274, z: 0.012022287}
    m_Extent: {x: 0.11653808, y: 0.17227644, z: 0.103472054}
  m_DirtyAABB: 0
--- !u!137 &137989451728890990
SkinnedMeshRenderer:
  m_ObjectHideFlags: 1
  m_PrefabParentObject: {fileID: 0}
  m_PrefabInternal: {fileID: 100100000}
  m_GameObject: {fileID: 1470271526400196}
  m_Enabled: 1
  m_CastShadows: 1
  m_ReceiveShadows: 1
  m_DynamicOccludee: 1
  m_MotionVectors: 1
  m_LightProbeUsage: 1
  m_ReflectionProbeUsage: 1
  m_Materials:
  - {fileID: 2100000, guid: fe055cc3e35ec4559bbbb8662e401536, type: 2}
  m_StaticBatchInfo:
    firstSubMesh: 0
    subMeshCount: 0
  m_StaticBatchRoot: {fileID: 0}
  m_ProbeAnchor: {fileID: 0}
  m_LightProbeVolumeOverride: {fileID: 0}
  m_ScaleInLightmap: 1
  m_PreserveUVs: 0
  m_IgnoreNormalsForChartDetection: 0
  m_ImportantGI: 0
  m_StitchLightmapSeams: 0
  m_SelectedEditorRenderState: 3
  m_MinimumChartSize: 4
  m_AutoUVMaxDistance: 0.5
  m_AutoUVMaxAngle: 89
  m_LightmapParameters: {fileID: 0}
  m_SortingLayerID: 0
  m_SortingLayer: 0
  m_SortingOrder: 0
  serializedVersion: 2
  m_Quality: 1
  m_UpdateWhenOffscreen: 1
  m_SkinnedMotionVectors: 1
  m_Mesh: {fileID: 4300004, guid: 227749b16d4a9467192b5d9499814f0b, type: 3}
  m_Bones:
  - {fileID: 4440900098688372}
  - {fileID: 4781151809729038}
  - {fileID: 4463725750210122}
  - {fileID: 4131283188659896}
  - {fileID: 4430748610066648}
  - {fileID: 4458566664509934}
  - {fileID: 4540342283253490}
  - {fileID: 4724320567550800}
  - {fileID: 4817094236622026}
  - {fileID: 4064846152962316}
  - {fileID: 4819727327197094}
  - {fileID: 4357349634261310}
  - {fileID: 4225908910874032}
  - {fileID: 4393191934648268}
  - {fileID: 4640880571658416}
  - {fileID: 4733434190644024}
  - {fileID: 4765388997636330}
  - {fileID: 4634482441631018}
  - {fileID: 4426542071785498}
  - {fileID: 4661386404652804}
  - {fileID: 4976418673645792}
  - {fileID: 4728081176350184}
  - {fileID: 4782801732767474}
  - {fileID: 4149164709056632}
  - {fileID: 4139671780087964}
  - {fileID: 4244563651200670}
  - {fileID: 4705961009660090}
  - {fileID: 4571148388547972}
  - {fileID: 4124641778303304}
  - {fileID: 4704541766836434}
  - {fileID: 4644254828221762}
  - {fileID: 4339561629842076}
  - {fileID: 4185532599860996}
  - {fileID: 4767711581630262}
  - {fileID: 4809619718930686}
  - {fileID: 4738057289678406}
  - {fileID: 4751452890086470}
  - {fileID: 4104051283611732}
  - {fileID: 4052532927750390}
  m_BlendShapeWeights: []
  m_RootBone: {fileID: 4440900098688372}
  m_AABB:
    m_Center: {x: -0.022964463, y: 0.3007094, z: -0.024421439}
    m_Extent: {x: 0.22702213, y: 0.045289874, z: 0.09675585}
  m_DirtyAABB: 0
--- !u!138 &138110066704804214
FixedJoint:
  m_ObjectHideFlags: 1
  m_PrefabParentObject: {fileID: 0}
  m_PrefabInternal: {fileID: 100100000}
  m_GameObject: {fileID: 1304655650738458}
  m_ConnectedBody: {fileID: 54427575567565908}
  m_BreakForce: 100
  m_BreakTorque: 100
  m_EnableCollision: 0
  m_EnablePreprocessing: 1
  m_MassScale: 1
  m_ConnectedMassScale: 1
--- !u!138 &138247787906949478
FixedJoint:
  m_ObjectHideFlags: 1
  m_PrefabParentObject: {fileID: 0}
  m_PrefabInternal: {fileID: 100100000}
  m_GameObject: {fileID: 1044986208252666}
  m_ConnectedBody: {fileID: 54735610886146482}
  m_BreakForce: Infinity
  m_BreakTorque: Infinity
  m_EnableCollision: 0
  m_EnablePreprocessing: 1
  m_MassScale: 1
  m_ConnectedMassScale: 1
--- !u!138 &138613600376009894
FixedJoint:
  m_ObjectHideFlags: 1
  m_PrefabParentObject: {fileID: 0}
  m_PrefabInternal: {fileID: 100100000}
  m_GameObject: {fileID: 1416242658775220}
  m_ConnectedBody: {fileID: 54741122441037412}
  m_BreakForce: 100
  m_BreakTorque: 100
  m_EnableCollision: 0
  m_EnablePreprocessing: 1
  m_MassScale: 1
  m_ConnectedMassScale: 1
--- !u!138 &138647588513081874
FixedJoint:
  m_ObjectHideFlags: 1
  m_PrefabParentObject: {fileID: 0}
  m_PrefabInternal: {fileID: 100100000}
  m_GameObject: {fileID: 1411471022487758}
  m_ConnectedBody: {fileID: 54427575567565908}
  m_BreakForce: 100
  m_BreakTorque: 100
  m_EnableCollision: 0
  m_EnablePreprocessing: 1
  m_MassScale: 1
  m_ConnectedMassScale: 1
--- !u!138 &138655482668863582
FixedJoint:
  m_ObjectHideFlags: 1
  m_PrefabParentObject: {fileID: 0}
  m_PrefabInternal: {fileID: 100100000}
  m_GameObject: {fileID: 1912169856399082}
  m_ConnectedBody: {fileID: 54328301732198270}
  m_BreakForce: 100
  m_BreakTorque: 100
  m_EnableCollision: 0
  m_EnablePreprocessing: 1
  m_MassScale: 1
  m_ConnectedMassScale: 1
--- !u!138 &138672526866910922
FixedJoint:
  m_ObjectHideFlags: 1
  m_PrefabParentObject: {fileID: 0}
  m_PrefabInternal: {fileID: 100100000}
  m_GameObject: {fileID: 1095736701386084}
  m_ConnectedBody: {fileID: 54893018502263176}
  m_BreakForce: 100
  m_BreakTorque: 100
  m_EnableCollision: 0
  m_EnablePreprocessing: 1
  m_MassScale: 1
  m_ConnectedMassScale: 1
--- !u!138 &138775051938112712
FixedJoint:
  m_ObjectHideFlags: 1
  m_PrefabParentObject: {fileID: 0}
  m_PrefabInternal: {fileID: 100100000}
  m_GameObject: {fileID: 1162183590795522}
  m_ConnectedBody: {fileID: 54956613350709360}
  m_BreakForce: Infinity
  m_BreakTorque: Infinity
  m_EnableCollision: 0
  m_EnablePreprocessing: 1
  m_MassScale: 1
  m_ConnectedMassScale: 1
--- !u!138 &138776154648751994
FixedJoint:
  m_ObjectHideFlags: 1
  m_PrefabParentObject: {fileID: 0}
  m_PrefabInternal: {fileID: 100100000}
  m_GameObject: {fileID: 1439533155842012}
  m_ConnectedBody: {fileID: 54735610886146482}
  m_BreakForce: 100
  m_BreakTorque: 100
  m_EnableCollision: 0
  m_EnablePreprocessing: 1
  m_MassScale: 1
  m_ConnectedMassScale: 1
--- !u!138 &138784436026179378
FixedJoint:
  m_ObjectHideFlags: 1
  m_PrefabParentObject: {fileID: 0}
  m_PrefabInternal: {fileID: 100100000}
  m_GameObject: {fileID: 1813795524998676}
  m_ConnectedBody: {fileID: 54735610886146482}
  m_BreakForce: 100
  m_BreakTorque: 100
  m_EnableCollision: 0
  m_EnablePreprocessing: 1
  m_MassScale: 1
  m_ConnectedMassScale: 1
--- !u!138 &138860783273348802
FixedJoint:
  m_ObjectHideFlags: 1
  m_PrefabParentObject: {fileID: 0}
  m_PrefabInternal: {fileID: 100100000}
  m_GameObject: {fileID: 1858226895978954}
  m_ConnectedBody: {fileID: 54912792974233108}
  m_BreakForce: 100
  m_BreakTorque: 100
  m_EnableCollision: 0
  m_EnablePreprocessing: 1
  m_MassScale: 1
  m_ConnectedMassScale: 1
--- !u!138 &138887801316997362
FixedJoint:
  m_ObjectHideFlags: 1
  m_PrefabParentObject: {fileID: 0}
  m_PrefabInternal: {fileID: 100100000}
  m_GameObject: {fileID: 1880103228302924}
  m_ConnectedBody: {fileID: 54427575567565908}
  m_BreakForce: 100
  m_BreakTorque: 100
  m_EnableCollision: 0
  m_EnablePreprocessing: 1
  m_MassScale: 1
  m_ConnectedMassScale: 1
--- !u!195 &195097589060825362
NavMeshAgent:
  m_ObjectHideFlags: 1
  m_PrefabParentObject: {fileID: 0}
  m_PrefabInternal: {fileID: 100100000}
  m_GameObject: {fileID: 1983258972998824}
  m_Enabled: 1
  m_AgentTypeID: 0
  m_Radius: 0.2
  m_Speed: 1
  m_Acceleration: 20
  avoidancePriority: 50
  m_AngularSpeed: 120
  m_StoppingDistance: 1.4
  m_AutoTraverseOffMeshLink: 1
  m_AutoBraking: 1
  m_AutoRepath: 1
  m_Height: 2
  m_BaseOffset: 0
  m_WalkableMask: 4294967295
  m_ObstacleAvoidanceType: 4
